<?xml version="1.0" encoding="UTF-8" standalone="no"?>
<!-- Created with Inkscape (http://www.inkscape.org/) -->

<svg
   xmlns:dc="http://purl.org/dc/elements/1.1/"
   xmlns:cc="http://creativecommons.org/ns#"
   xmlns:rdf="http://www.w3.org/1999/02/22-rdf-syntax-ns#"
   xmlns:svg="http://www.w3.org/2000/svg"
   xmlns="http://www.w3.org/2000/svg"
   xmlns:sodipodi="http://sodipodi.sourceforge.net/DTD/sodipodi-0.dtd"
   xmlns:inkscape="http://www.inkscape.org/namespaces/inkscape"
   width="331.34244mm"
   height="91.644791mm"
   viewBox="0 0 331.34244 91.644791"
   version="1.1"
   id="svg987"
   sodipodi:docname="badpathstrands.svg"
   inkscape:version="0.92.5 (2060ec1f9f, 2020-04-08)">
  <defs
     id="defs981">
    <marker
       inkscape:stockid="Arrow2Lstart"
       orient="auto"
       refY="0"
       refX="0"
       id="marker2356"
       style="overflow:visible"
       inkscape:isstock="true">
      <path
         id="path2354"
         style="fill:#000000;fill-opacity:1;fill-rule:evenodd;stroke:#000000;stroke-width:0.625;stroke-linejoin:round;stroke-opacity:1"
         d="M 8.7185878,4.0337352 -2.2072895,0.01601326 8.7185884,-4.0017078 c -1.7454984,2.3720609 -1.7354408,5.6174519 -6e-7,8.035443 z"
         transform="matrix(1.1,0,0,1.1,1.1,0)"
         inkscape:connector-curvature="0" />
    </marker>
    <marker
       inkscape:stockid="Arrow2Mend"
       orient="auto"
       refY="0"
       refX="0"
       id="Arrow2Mend"
       style="overflow:visible"
       inkscape:isstock="true">
      <path
         id="path1953"
         style="fill:#000000;fill-opacity:1;fill-rule:evenodd;stroke:#000000;stroke-width:0.625;stroke-linejoin:round;stroke-opacity:1"
         d="M 8.7185878,4.0337352 -2.2072895,0.01601326 8.7185884,-4.0017078 c -1.7454984,2.3720609 -1.7354408,5.6174519 -6e-7,8.035443 z"
         transform="scale(-0.6)"
         inkscape:connector-curvature="0" />
    </marker>
    <marker
       inkscape:stockid="Arrow2Lstart"
       orient="auto"
       refY="0"
       refX="0"
       id="Arrow2Lstart"
       style="overflow:visible"
       inkscape:isstock="true">
      <path
         id="path1944"
         style="fill:#000000;fill-opacity:1;fill-rule:evenodd;stroke:#000000;stroke-width:0.625;stroke-linejoin:round;stroke-opacity:1"
         d="M 8.7185878,4.0337352 -2.2072895,0.01601326 8.7185884,-4.0017078 c -1.7454984,2.3720609 -1.7354408,5.6174519 -6e-7,8.035443 z"
         transform="matrix(1.1,0,0,1.1,1.1,0)"
         inkscape:connector-curvature="0" />
    </marker>
    <marker
       inkscape:stockid="Arrow2Lend"
       orient="auto"
       refY="0"
       refX="0"
       id="marker1852"
       style="overflow:visible"
       inkscape:isstock="true">
      <path
         id="path1850"
         style="fill:#000000;fill-opacity:1;fill-rule:evenodd;stroke:#000000;stroke-width:0.625;stroke-linejoin:round;stroke-opacity:1"
         d="M 8.7185878,4.0337352 -2.2072895,0.01601326 8.7185884,-4.0017078 c -1.7454984,2.3720609 -1.7354408,5.6174519 -6e-7,8.035443 z"
         transform="matrix(-1.1,0,0,-1.1,-1.1,0)"
         inkscape:connector-curvature="0" />
    </marker>
    <marker
       inkscape:isstock="true"
       style="overflow:visible"
       id="marker1578"
       refX="0"
       refY="0"
       orient="auto"
       inkscape:stockid="Arrow2Lend"
       inkscape:collect="always">
      <path
         transform="matrix(-1.1,0,0,-1.1,-1.1,0)"
         d="M 8.7185878,4.0337352 -2.2072895,0.01601326 8.7185884,-4.0017078 c -1.7454984,2.3720609 -1.7354408,5.6174519 -6e-7,8.035443 z"
         style="fill:#000000;fill-opacity:1;fill-rule:evenodd;stroke:#000000;stroke-width:0.625;stroke-linejoin:round;stroke-opacity:1"
         id="path1576"
         inkscape:connector-curvature="0" />
    </marker>
    <marker
       inkscape:stockid="Arrow2Lend"
       orient="auto"
       refY="0"
       refX="0"
       id="marker1496"
       style="overflow:visible"
       inkscape:isstock="true"
       inkscape:collect="always">
      <path
         id="path1494"
         style="fill:#000000;fill-opacity:1;fill-rule:evenodd;stroke:#000000;stroke-width:0.625;stroke-linejoin:round;stroke-opacity:1"
         d="M 8.7185878,4.0337352 -2.2072895,0.01601326 8.7185884,-4.0017078 c -1.7454984,2.3720609 -1.7354408,5.6174519 -6e-7,8.035443 z"
         transform="matrix(-1.1,0,0,-1.1,-1.1,0)"
         inkscape:connector-curvature="0" />
    </marker>
    <marker
       inkscape:isstock="true"
       style="overflow:visible"
       id="marker1420"
       refX="0"
       refY="0"
       orient="auto"
       inkscape:stockid="Arrow2Lend"
       inkscape:collect="always">
      <path
         transform="matrix(-1.1,0,0,-1.1,-1.1,0)"
         d="M 8.7185878,4.0337352 -2.2072895,0.01601326 8.7185884,-4.0017078 c -1.7454984,2.3720609 -1.7354408,5.6174519 -6e-7,8.035443 z"
         style="fill:#000000;fill-opacity:1;fill-rule:evenodd;stroke:#000000;stroke-width:0.625;stroke-linejoin:round;stroke-opacity:1"
         id="path1418"
         inkscape:connector-curvature="0" />
    </marker>
    <marker
       inkscape:stockid="Arrow2Lend"
       orient="auto"
       refY="0"
       refX="0"
       id="marker1350"
       style="overflow:visible"
       inkscape:isstock="true"
       inkscape:collect="always">
      <path
         id="path1348"
         style="fill:#000000;fill-opacity:1;fill-rule:evenodd;stroke:#000000;stroke-width:0.625;stroke-linejoin:round;stroke-opacity:1"
         d="M 8.7185878,4.0337352 -2.2072895,0.01601326 8.7185884,-4.0017078 c -1.7454984,2.3720609 -1.7354408,5.6174519 -6e-7,8.035443 z"
         transform="matrix(-1.1,0,0,-1.1,-1.1,0)"
         inkscape:connector-curvature="0" />
    </marker>
    <marker
       inkscape:stockid="Arrow1Lend"
       orient="auto"
       refY="0"
       refX="0"
       id="Arrow1Lend"
       style="overflow:visible"
       inkscape:isstock="true">
      <path
         id="path913"
         d="M 0,0 5,-5 -12.5,0 5,5 Z"
         style="fill:#000000;fill-opacity:1;fill-rule:evenodd;stroke:#000000;stroke-width:1.00000003pt;stroke-opacity:1"
         transform="matrix(-0.8,0,0,-0.8,-10,0)"
         inkscape:connector-curvature="0" />
    </marker>
    <marker
       inkscape:stockid="Arrow1Lstart"
       orient="auto"
       refY="0"
       refX="0"
       id="marker2581"
       style="overflow:visible"
       inkscape:isstock="true">
      <path
         id="path2579"
         d="M 0,0 5,-5 -12.5,0 5,5 Z"
         style="fill:#000000;fill-opacity:1;fill-rule:evenodd;stroke:#000000;stroke-width:1.00000003pt;stroke-opacity:1"
         transform="matrix(0.8,0,0,0.8,10,0)"
         inkscape:connector-curvature="0" />
    </marker>
    <marker
       inkscape:stockid="Arrow1Lstart"
       orient="auto"
       refY="0"
       refX="0"
       id="marker2547"
       style="overflow:visible"
       inkscape:isstock="true">
      <path
         id="path2545"
         d="M 0,0 5,-5 -12.5,0 5,5 Z"
         style="fill:#000000;fill-opacity:1;fill-rule:evenodd;stroke:#000000;stroke-width:1.00000003pt;stroke-opacity:1"
         transform="matrix(0.8,0,0,0.8,10,0)"
         inkscape:connector-curvature="0" />
    </marker>
    <marker
       inkscape:stockid="Arrow1Lstart"
       orient="auto"
       refY="0"
       refX="0"
       id="marker2501"
       style="overflow:visible"
       inkscape:isstock="true">
      <path
         id="path2499"
         d="M 0,0 5,-5 -12.5,0 5,5 Z"
         style="fill:#000000;fill-opacity:1;fill-rule:evenodd;stroke:#000000;stroke-width:1.00000003pt;stroke-opacity:1"
         transform="matrix(0.8,0,0,0.8,10,0)"
         inkscape:connector-curvature="0" />
    </marker>
    <marker
       inkscape:stockid="Arrow1Lstart"
       orient="auto"
       refY="0"
       refX="0"
       id="marker2467"
       style="overflow:visible"
       inkscape:isstock="true">
      <path
         id="path2465"
         d="M 0,0 5,-5 -12.5,0 5,5 Z"
         style="fill:#000000;fill-opacity:1;fill-rule:evenodd;stroke:#000000;stroke-width:1.00000003pt;stroke-opacity:1"
         transform="matrix(0.8,0,0,0.8,10,0)"
         inkscape:connector-curvature="0" />
    </marker>
    <marker
       inkscape:stockid="Arrow2Lstart"
       orient="auto"
       refY="0"
       refX="0"
       id="marker2356-7"
       style="overflow:visible"
       inkscape:isstock="true">
      <path
         inkscape:connector-curvature="0"
         id="path2354-0"
         style="fill:#000000;fill-opacity:1;fill-rule:evenodd;stroke:#000000;stroke-width:0.625;stroke-linejoin:round;stroke-opacity:1"
         d="M 8.7185878,4.0337352 -2.2072895,0.01601326 8.7185884,-4.0017078 c -1.7454984,2.3720609 -1.7354408,5.6174519 -6e-7,8.035443 z"
         transform="matrix(1.1,0,0,1.1,1.1,0)" />
    </marker>
    <marker
       inkscape:isstock="true"
       style="overflow:visible"
       id="marker2356-75"
       refX="0"
       refY="0"
       orient="auto"
       inkscape:stockid="Arrow2Lstart">
      <path
         inkscape:connector-curvature="0"
         transform="matrix(1.1,0,0,1.1,1.1,0)"
         d="M 8.7185878,4.0337352 -2.2072895,0.01601326 8.7185884,-4.0017078 c -1.7454984,2.3720609 -1.7354408,5.6174519 -6e-7,8.035443 z"
         style="fill:#000000;fill-opacity:1;fill-rule:evenodd;stroke:#000000;stroke-width:0.625;stroke-linejoin:round;stroke-opacity:1"
         id="path2354-3" />
    </marker>
    <marker
       inkscape:isstock="true"
       style="overflow:visible"
       id="Arrow2Mend-5"
       refX="0"
       refY="0"
       orient="auto"
       inkscape:stockid="Arrow2Mend">
      <path
         inkscape:connector-curvature="0"
         transform="scale(-0.6)"
         d="M 8.7185878,4.0337352 -2.2072895,0.01601326 8.7185884,-4.0017078 c -1.7454984,2.3720609 -1.7354408,5.6174519 -6e-7,8.035443 z"
         style="fill:#000000;fill-opacity:1;fill-rule:evenodd;stroke:#000000;stroke-width:0.625;stroke-linejoin:round;stroke-opacity:1"
         id="path1953-6" />
    </marker>
    <marker
       inkscape:isstock="true"
       style="overflow:visible"
       id="Arrow2Lstart-2"
       refX="0"
       refY="0"
       orient="auto"
       inkscape:stockid="Arrow2Lstart">
      <path
         inkscape:connector-curvature="0"
         transform="matrix(1.1,0,0,1.1,1.1,0)"
         d="M 8.7185878,4.0337352 -2.2072895,0.01601326 8.7185884,-4.0017078 c -1.7454984,2.3720609 -1.7354408,5.6174519 -6e-7,8.035443 z"
         style="fill:#000000;fill-opacity:1;fill-rule:evenodd;stroke:#000000;stroke-width:0.625;stroke-linejoin:round;stroke-opacity:1"
         id="path1944-9" />
    </marker>
    <marker
       inkscape:isstock="true"
       style="overflow:visible"
       id="marker1852-1"
       refX="0"
       refY="0"
       orient="auto"
       inkscape:stockid="Arrow2Lend">
      <path
         inkscape:connector-curvature="0"
         transform="matrix(-1.1,0,0,-1.1,-1.1,0)"
         d="M 8.7185878,4.0337352 -2.2072895,0.01601326 8.7185884,-4.0017078 c -1.7454984,2.3720609 -1.7354408,5.6174519 -6e-7,8.035443 z"
         style="fill:#000000;fill-opacity:1;fill-rule:evenodd;stroke:#000000;stroke-width:0.625;stroke-linejoin:round;stroke-opacity:1"
         id="path1850-2" />
    </marker>
    <marker
       inkscape:isstock="true"
       style="overflow:visible"
       id="Arrow1Lend-6"
       refX="0"
       refY="0"
       orient="auto"
       inkscape:stockid="Arrow1Lend">
      <path
         inkscape:connector-curvature="0"
         transform="matrix(-0.8,0,0,-0.8,-10,0)"
         style="fill:#000000;fill-opacity:1;fill-rule:evenodd;stroke:#000000;stroke-width:1.00000003pt;stroke-opacity:1"
         d="M 0,0 5,-5 -12.5,0 5,5 Z"
         id="path913-1" />
    </marker>
    <marker
       inkscape:isstock="true"
       style="overflow:visible"
       id="marker2581-8"
       refX="0"
       refY="0"
       orient="auto"
       inkscape:stockid="Arrow1Lstart">
      <path
         inkscape:connector-curvature="0"
         transform="matrix(0.8,0,0,0.8,10,0)"
         style="fill:#000000;fill-opacity:1;fill-rule:evenodd;stroke:#000000;stroke-width:1.00000003pt;stroke-opacity:1"
         d="M 0,0 5,-5 -12.5,0 5,5 Z"
         id="path2579-7" />
    </marker>
    <marker
       inkscape:isstock="true"
       style="overflow:visible"
       id="marker2547-9"
       refX="0"
       refY="0"
       orient="auto"
       inkscape:stockid="Arrow1Lstart">
      <path
         inkscape:connector-curvature="0"
         transform="matrix(0.8,0,0,0.8,10,0)"
         style="fill:#000000;fill-opacity:1;fill-rule:evenodd;stroke:#000000;stroke-width:1.00000003pt;stroke-opacity:1"
         d="M 0,0 5,-5 -12.5,0 5,5 Z"
         id="path2545-2" />
    </marker>
    <marker
       inkscape:isstock="true"
       style="overflow:visible"
       id="marker2501-0"
       refX="0"
       refY="0"
       orient="auto"
       inkscape:stockid="Arrow1Lstart">
      <path
         inkscape:connector-curvature="0"
         transform="matrix(0.8,0,0,0.8,10,0)"
         style="fill:#000000;fill-opacity:1;fill-rule:evenodd;stroke:#000000;stroke-width:1.00000003pt;stroke-opacity:1"
         d="M 0,0 5,-5 -12.5,0 5,5 Z"
         id="path2499-2" />
    </marker>
    <marker
       inkscape:isstock="true"
       style="overflow:visible"
       id="marker2467-3"
       refX="0"
       refY="0"
       orient="auto"
       inkscape:stockid="Arrow1Lstart">
      <path
         inkscape:connector-curvature="0"
         transform="matrix(0.8,0,0,0.8,10,0)"
         style="fill:#000000;fill-opacity:1;fill-rule:evenodd;stroke:#000000;stroke-width:1.00000003pt;stroke-opacity:1"
         d="M 0,0 5,-5 -12.5,0 5,5 Z"
         id="path2465-7" />
    </marker>
    <marker
       inkscape:isstock="true"
       style="overflow:visible"
       id="marker2356-7-5"
       refX="0"
       refY="0"
       orient="auto"
       inkscape:stockid="Arrow2Lstart">
      <path
         transform="matrix(1.1,0,0,1.1,1.1,0)"
         d="M 8.7185878,4.0337352 -2.2072895,0.01601326 8.7185884,-4.0017078 c -1.7454984,2.3720609 -1.7354408,5.6174519 -6e-7,8.035443 z"
         style="fill:#000000;fill-opacity:1;fill-rule:evenodd;stroke:#000000;stroke-width:0.625;stroke-linejoin:round;stroke-opacity:1"
         id="path2354-0-9"
         inkscape:connector-curvature="0" />
    </marker>
    <clipPath
       id="clipPath1164"
       clipPathUnits="userSpaceOnUse">
      <circle
         r="19.598337"
         cy="45.410152"
         cx="207.98471"
         id="circle1166"
         style="opacity:1;fill:none;fill-opacity:1;stroke:#555555;stroke-width:0.49489436;stroke-linecap:round;stroke-linejoin:round;stroke-miterlimit:4;stroke-dasharray:0.98978869, 1.97957738;stroke-dashoffset:0;stroke-opacity:1;paint-order:fill markers stroke" />
    </clipPath>
    <marker
       inkscape:isstock="true"
       style="overflow:visible"
       id="marker2356-8"
       refX="0"
       refY="0"
       orient="auto"
       inkscape:stockid="Arrow2Lstart">
      <path
         inkscape:connector-curvature="0"
         transform="matrix(1.1,0,0,1.1,1.1,0)"
         d="M 8.7185878,4.0337352 -2.2072895,0.01601326 8.7185884,-4.0017078 c -1.7454984,2.3720609 -1.7354408,5.6174519 -6e-7,8.035443 z"
         style="fill:#000000;fill-opacity:1;fill-rule:evenodd;stroke:#000000;stroke-width:0.625;stroke-linejoin:round;stroke-opacity:1"
         id="path2354-4" />
    </marker>
    <marker
       inkscape:isstock="true"
       style="overflow:visible"
       id="Arrow2Mend-50"
       refX="0"
       refY="0"
       orient="auto"
       inkscape:stockid="Arrow2Mend">
      <path
         inkscape:connector-curvature="0"
         transform="scale(-0.6)"
         d="M 8.7185878,4.0337352 -2.2072895,0.01601326 8.7185884,-4.0017078 c -1.7454984,2.3720609 -1.7354408,5.6174519 -6e-7,8.035443 z"
         style="fill:#000000;fill-opacity:1;fill-rule:evenodd;stroke:#000000;stroke-width:0.625;stroke-linejoin:round;stroke-opacity:1"
         id="path1953-3" />
    </marker>
    <marker
       inkscape:isstock="true"
       style="overflow:visible"
       id="Arrow2Lstart-6"
       refX="0"
       refY="0"
       orient="auto"
       inkscape:stockid="Arrow2Lstart">
      <path
         inkscape:connector-curvature="0"
         transform="matrix(1.1,0,0,1.1,1.1,0)"
         d="M 8.7185878,4.0337352 -2.2072895,0.01601326 8.7185884,-4.0017078 c -1.7454984,2.3720609 -1.7354408,5.6174519 -6e-7,8.035443 z"
         style="fill:#000000;fill-opacity:1;fill-rule:evenodd;stroke:#000000;stroke-width:0.625;stroke-linejoin:round;stroke-opacity:1"
         id="path1944-1" />
    </marker>
    <marker
       inkscape:isstock="true"
       style="overflow:visible"
       id="marker1852-0"
       refX="0"
       refY="0"
       orient="auto"
       inkscape:stockid="Arrow2Lend">
      <path
         inkscape:connector-curvature="0"
         transform="matrix(-1.1,0,0,-1.1,-1.1,0)"
         d="M 8.7185878,4.0337352 -2.2072895,0.01601326 8.7185884,-4.0017078 c -1.7454984,2.3720609 -1.7354408,5.6174519 -6e-7,8.035443 z"
         style="fill:#000000;fill-opacity:1;fill-rule:evenodd;stroke:#000000;stroke-width:0.625;stroke-linejoin:round;stroke-opacity:1"
         id="path1850-6" />
    </marker>
    <marker
       inkscape:isstock="true"
       style="overflow:visible"
       id="Arrow1Lend-7"
       refX="0"
       refY="0"
       orient="auto"
       inkscape:stockid="Arrow1Lend">
      <path
         inkscape:connector-curvature="0"
         transform="matrix(-0.8,0,0,-0.8,-10,0)"
         style="fill:#000000;fill-opacity:1;fill-rule:evenodd;stroke:#000000;stroke-width:1.00000003pt;stroke-opacity:1"
         d="M 0,0 5,-5 -12.5,0 5,5 Z"
         id="path913-6" />
    </marker>
    <marker
       inkscape:isstock="true"
       style="overflow:visible"
       id="marker2581-5"
       refX="0"
       refY="0"
       orient="auto"
       inkscape:stockid="Arrow1Lstart">
      <path
         inkscape:connector-curvature="0"
         transform="matrix(0.8,0,0,0.8,10,0)"
         style="fill:#000000;fill-opacity:1;fill-rule:evenodd;stroke:#000000;stroke-width:1.00000003pt;stroke-opacity:1"
         d="M 0,0 5,-5 -12.5,0 5,5 Z"
         id="path2579-6" />
    </marker>
    <marker
       inkscape:isstock="true"
       style="overflow:visible"
       id="marker2547-93"
       refX="0"
       refY="0"
       orient="auto"
       inkscape:stockid="Arrow1Lstart">
      <path
         inkscape:connector-curvature="0"
         transform="matrix(0.8,0,0,0.8,10,0)"
         style="fill:#000000;fill-opacity:1;fill-rule:evenodd;stroke:#000000;stroke-width:1.00000003pt;stroke-opacity:1"
         d="M 0,0 5,-5 -12.5,0 5,5 Z"
         id="path2545-7" />
    </marker>
    <marker
       inkscape:isstock="true"
       style="overflow:visible"
       id="marker2501-4"
       refX="0"
       refY="0"
       orient="auto"
       inkscape:stockid="Arrow1Lstart">
      <path
         inkscape:connector-curvature="0"
         transform="matrix(0.8,0,0,0.8,10,0)"
         style="fill:#000000;fill-opacity:1;fill-rule:evenodd;stroke:#000000;stroke-width:1.00000003pt;stroke-opacity:1"
         d="M 0,0 5,-5 -12.5,0 5,5 Z"
         id="path2499-5" />
    </marker>
    <marker
       inkscape:isstock="true"
       style="overflow:visible"
       id="marker2467-2"
       refX="0"
       refY="0"
       orient="auto"
       inkscape:stockid="Arrow1Lstart">
      <path
         inkscape:connector-curvature="0"
         transform="matrix(0.8,0,0,0.8,10,0)"
         style="fill:#000000;fill-opacity:1;fill-rule:evenodd;stroke:#000000;stroke-width:1.00000003pt;stroke-opacity:1"
         d="M 0,0 5,-5 -12.5,0 5,5 Z"
         id="path2465-5" />
    </marker>
    <marker
       inkscape:isstock="true"
       style="overflow:visible"
       id="marker2356-7-4"
       refX="0"
       refY="0"
       orient="auto"
       inkscape:stockid="Arrow2Lstart">
      <path
         transform="matrix(1.1,0,0,1.1,1.1,0)"
         d="M 8.7185878,4.0337352 -2.2072895,0.01601326 8.7185884,-4.0017078 c -1.7454984,2.3720609 -1.7354408,5.6174519 -6e-7,8.035443 z"
         style="fill:#000000;fill-opacity:1;fill-rule:evenodd;stroke:#000000;stroke-width:0.625;stroke-linejoin:round;stroke-opacity:1"
         id="path2354-0-7"
         inkscape:connector-curvature="0" />
    </marker>
  </defs>
  <sodipodi:namedview
     id="base"
     pagecolor="#ffffff"
     bordercolor="#666666"
     borderopacity="1.0"
     inkscape:pageopacity="0.0"
     inkscape:pageshadow="2"
     inkscape:zoom="0.5"
     inkscape:cx="759.3652"
     inkscape:cy="350.25056"
     inkscape:document-units="mm"
     inkscape:current-layer="layer1"
     showgrid="false"
     inkscape:snap-bbox="true"
     inkscape:bbox-nodes="true"
     inkscape:object-paths="false"
     inkscape:snap-intersection-paths="true"
     inkscape:snap-smooth-nodes="true"
     fit-margin-top="0"
     fit-margin-left="0"
     fit-margin-right="0"
     fit-margin-bottom="0"
     inkscape:window-width="1920"
     inkscape:window-height="1057"
     inkscape:window-x="3840"
     inkscape:window-y="0"
     inkscape:window-maximized="1"
     inkscape:snap-global="false"
     inkscape:snap-object-midpoints="true"
     inkscape:snap-bbox-midpoints="true"
     inkscape:object-nodes="true"
     inkscape:snap-nodes="true"
     inkscape:lockguides="true" />
  <metadata
     id="metadata984">
    <rdf:RDF>
      <cc:Work
         rdf:about="">
        <dc:format>image/svg+xml</dc:format>
        <dc:type
           rdf:resource="http://purl.org/dc/dcmitype/StillImage" />
        <dc:title></dc:title>
      </cc:Work>
    </rdf:RDF>
  </metadata>
  <g
     inkscape:label="Layer 1"
     inkscape:groupmode="layer"
     id="layer1"
     transform="translate(-4.5123712,-14.191505)">
    <path
       style="color:#000000;font-style:normal;font-variant:normal;font-weight:normal;font-stretch:normal;font-size:medium;line-height:normal;font-family:sans-serif;font-variant-ligatures:normal;font-variant-position:normal;font-variant-caps:normal;font-variant-numeric:normal;font-variant-alternates:normal;font-feature-settings:normal;text-indent:0;text-align:start;text-decoration:none;text-decoration-line:none;text-decoration-style:solid;text-decoration-color:#000000;letter-spacing:normal;word-spacing:normal;text-transform:none;writing-mode:lr-tb;direction:ltr;text-orientation:mixed;dominant-baseline:auto;baseline-shift:baseline;text-anchor:start;white-space:normal;shape-padding:0;clip-rule:nonzero;display:inline;overflow:visible;visibility:visible;opacity:1;isolation:auto;mix-blend-mode:normal;color-interpolation:sRGB;color-interpolation-filters:linearRGB;solid-color:#000000;solid-opacity:1;vector-effect:none;fill:#c5c5c5;fill-opacity:1;fill-rule:nonzero;stroke:#dfdfdf;stroke-width:1;stroke-linecap:round;stroke-linejoin:round;stroke-miterlimit:4;stroke-dasharray:4, 4;stroke-dashoffset:0;stroke-opacity:1;color-rendering:auto;image-rendering:auto;shape-rendering:auto;text-rendering:auto;enable-background:accumulate"
       d="m 163.89062,19.212891 c -17.57555,-0.348722 -29.376,4.313979 -36.73632,11.072265 -7.36032,6.758287 -9.99706,15.203442 -10.54492,21.542969 -0.49444,5.721309 -0.64859,14.281095 0.49414,22.226563 0.57136,3.972733 1.44187,7.784108 2.99804,11.160156 1.55617,3.376048 4.02315,6.68681 8.08789,7.9375 3.26152,1.003544 6.77241,1.086166 10.35547,0.546875 0.96045,1.455604 2.09062,2.848734 3.4961,4.091797 2.66028,2.352874 6.48792,3.951584 10.67968,3.748044 4.19177,-0.20354 8.55137,-1.943427 13.34375,-5.187498 8.58283,-5.809914 15.9362,-10.642013 21.57617,-16.355468 5.63998,-5.713456 9.4665,-12.703125 9.85352,-21.294922 0.37465,-8.317089 -1.58166,-17.498497 -6.91602,-25.132813 -5.33435,-7.634316 -14.30284,-13.449741 -26.41992,-14.341797 l -0.13281,-0.0098 z m -0.35546,10.005859 c 9.37323,0.720724 15.0684,4.67221 18.8457,10.078125 3.79377,5.429486 5.40986,12.585839 5.12305,18.953125 -0.27444,6.092577 -2.46706,10.148482 -6.98047,14.720703 -4.51342,4.572222 -11.44937,9.267858 -20.06446,15.099609 -3.80658,2.576763 -6.53984,3.398756 -8.22265,3.480469 -1.51128,0.07338 -2.33417,-0.301569 -3.25391,-1.044922 6.66036,-2.979609 13.02058,-7.714555 16.39258,-14.623047 2.86653,-5.872879 4.92747,-10.622674 3.82422,-15.90039 -0.55163,-2.638858 -2.35423,-5.209237 -4.68555,-6.664063 -2.33131,-1.454825 -4.95745,-2.059685 -7.93555,-2.333984 -7.81442,-0.71975 -13.96675,4.636577 -17.95898,10.595703 -3.99222,5.959127 -6.50426,13.077137 -4.81836,19.919922 0.17031,0.691238 0.53508,1.585555 0.73633,2.34375 -1.38773,0.04251 -2.62527,-0.0077 -3.40625,-0.248047 -0.23474,-0.07223 -1.04145,-0.597044 -1.94922,-2.566406 -0.90776,-1.969362 -1.69271,-5.012447 -2.17969,-8.398438 -0.97395,-6.77198 -0.86129,-14.94709 -0.42968,-19.941406 0.37818,-4.376098 2.17138,-10.286022 7.3457,-15.037109 5.1552,-4.733533 13.96442,-8.713455 29.61719,-8.433594 z m -7.875,31.722656 c 2.04898,0.188723 3.20882,0.641837 3.56054,0.861328 0.35173,0.219491 0.12923,-0.06153 0.18946,0.226563 0.12044,0.57619 -0.46405,4.227176 -3.02149,9.466797 -1.9595,4.014588 -6.66188,7.838712 -11.9082,10.103515 -0.0399,0.01724 -0.0811,0.02398 -0.12109,0.04102 -0.26997,-0.862934 -0.64157,-1.696726 -0.84766,-2.533203 -0.56306,-2.28534 0.62829,-7.799752 3.41601,-11.960938 2.78773,-4.161185 6.49268,-6.41137 8.73243,-6.205078 z"
       id="path2494"
       inkscape:connector-curvature="0" />
    <path
       style="fill:none;stroke:#000000;stroke-width:0.89999998;stroke-linecap:round;stroke-linejoin:round;stroke-miterlimit:4;stroke-dasharray:none;stroke-opacity:1;marker-end:url(#marker1350)"
       d="m 102.20166,-0.44272107 c 25.07442,-40.57126193 22.45064,-51.02124593 0,-81.14252193"
       id="path2116-5"
       inkscape:connector-curvature="0"
       sodipodi:nodetypes="cc" />
    <path
       style="fill:none;stroke:#000000;stroke-width:0.89999998;stroke-linecap:round;stroke-linejoin:round;stroke-miterlimit:4;stroke-dasharray:none;stroke-opacity:1;marker-end:url(#marker1420)"
       d="m 226.90535,-10.171332 c -25.07442,-40.571262 -33.86759,-40.009994 0,-81.142522"
       id="path2114-4"
       inkscape:connector-curvature="0"
       sodipodi:nodetypes="cc" />
    <path
       style="fill:none;stroke:#000000;stroke-width:0.89999998;stroke-linecap:round;stroke-linejoin:round;stroke-miterlimit:4;stroke-dasharray:none;stroke-opacity:1;marker-end:url(#marker1496)"
       d="m 267.97253,-2.3136082 c 25.07442,-40.5712618 22.45064,-51.0212458 0,-81.1425218"
       id="path2116-5-4"
       inkscape:connector-curvature="0"
       sodipodi:nodetypes="cc" />
    <path
       style="fill:none;stroke:#000000;stroke-width:0.89999998;stroke-linecap:round;stroke-linejoin:round;stroke-miterlimit:4;stroke-dasharray:none;stroke-opacity:1;marker-end:url(#marker1578)"
       d="m 299.26982,-2.3136082 c -25.07443,-40.5712618 -33.86759,-40.0099938 0,-81.1425218"
       id="path2114-4-7"
       inkscape:connector-curvature="0"
       sodipodi:nodetypes="cc" />
    <circle
       style="opacity:1;fill:#100000;fill-opacity:1;stroke:none;stroke-width:0.66432709;stroke-linecap:round;stroke-linejoin:round;stroke-miterlimit:4;stroke-dasharray:none;stroke-dashoffset:0;stroke-opacity:1;paint-order:fill markers stroke"
       id="path1700-3-6"
       cx="282.41037"
       cy="-60.83799"
       r="1.9529985" />
    <circle
       style="opacity:1;fill:#100000;fill-opacity:1;stroke:none;stroke-width:0.66432709;stroke-linecap:round;stroke-linejoin:round;stroke-miterlimit:4;stroke-dasharray:none;stroke-dashoffset:0;stroke-opacity:1;paint-order:fill markers stroke"
       id="path1700-3-6-7"
       cx="282.20721"
       cy="-29.478983"
       r="1.9529986" />
    <circle
       style="opacity:1;fill:#000000;fill-opacity:1;stroke:none;stroke-width:0.66432709;stroke-linecap:round;stroke-linejoin:round;stroke-miterlimit:4;stroke-dasharray:none;stroke-dashoffset:0;stroke-opacity:1;paint-order:fill markers stroke"
       id="path1700-3-6-7-5"
       cx="163.0675"
       cy="-35.377579"
       r="1.9529986" />
    <circle
       style="opacity:1;fill:#000000;fill-opacity:1;stroke:none;stroke-width:0.66432709;stroke-linecap:round;stroke-linejoin:round;stroke-miterlimit:4;stroke-dasharray:none;stroke-dashoffset:0;stroke-opacity:1;paint-order:fill markers stroke"
       id="path1700-3-6-7-5-9"
       cx="45.393997"
       cy="153.968"
       r="1.9529986" />
    <circle
       style="opacity:1;fill:#000000;fill-opacity:1;stroke:none;stroke-width:0.66432709;stroke-linecap:round;stroke-linejoin:round;stroke-miterlimit:4;stroke-dasharray:none;stroke-dashoffset:0;stroke-opacity:1;paint-order:fill markers stroke"
       id="path1700-3-6-7-5-1"
       cx="35.197666"
       cy="128.89813"
       r="1.9529986" />
    <path
       inkscape:connector-curvature="0"
       id="path4742-6"
       d="m 84.912048,122.39515 -4.515709,5.62901 -2.990062,-6.56787"
       style="fill:none;stroke:#000000;stroke-width:0.89999998;stroke-linecap:round;stroke-linejoin:round;stroke-miterlimit:4;stroke-dasharray:none;stroke-opacity:1" />
    <path
       inkscape:connector-curvature="0"
       id="path4742-6-6"
       d="m 28.613945,141.556 4.633929,-5.53209 2.850272,6.62973"
       style="fill:none;stroke:#000000;stroke-width:0.90000004;stroke-linecap:round;stroke-linejoin:round;stroke-miterlimit:4;stroke-dasharray:none;stroke-opacity:1" />
    <path
       inkscape:connector-curvature="0"
       id="path4742-6-2"
       d="m 50.821167,138.53698 -4.114526,5.92858 -3.43828,-6.34473"
       style="fill:none;stroke:#000000;stroke-width:0.90000004;stroke-linecap:round;stroke-linejoin:round;stroke-miterlimit:4;stroke-dasharray:none;stroke-opacity:1" />
    <path
       inkscape:connector-curvature="0"
       id="path4742-6-61"
       d="m 60.211951,121.9057 -5.235897,-4.96616 6.792835,-2.43614"
       style="fill:none;stroke:#000000;stroke-width:0.90000004;stroke-linecap:round;stroke-linejoin:round;stroke-miterlimit:4;stroke-dasharray:none;stroke-opacity:1" />
    <path
       style="fill:none;stroke:#000000;stroke-width:0.90000004;stroke-linecap:round;stroke-linejoin:round;stroke-miterlimit:4;stroke-dasharray:none;stroke-opacity:1"
       d="m 70.286595,-12.137581 -6.671082,-2.752098 5.46309,-4.715085"
       id="path4742-6-0"
       inkscape:connector-curvature="0" />
    <g
       id="g2492">
      <path
         sodipodi:nodetypes="sssss"
         inkscape:connector-curvature="0"
         id="path1046"
         d="m 93.941537,57.698143 c -2e-6,24.40293 -20.89226,43.391657 -44.053125,43.391657 -23.160865,0 -36.777082,-17.004352 -36.777084,-41.407282 0,-24.402932 19.172468,-40.745834 42.333334,-40.745834 23.160867,1e-6 38.496875,14.358527 38.496875,38.761459 z"
         style="opacity:1;vector-effect:none;fill:#c5c5c5;fill-opacity:1;stroke:#dfdfdf;stroke-width:1;stroke-linecap:round;stroke-linejoin:round;stroke-miterlimit:4;stroke-dasharray:4, 4;stroke-dashoffset:0;stroke-opacity:1;paint-order:fill markers stroke" />
      <path
         sodipodi:nodetypes="sssss"
         inkscape:connector-curvature="0"
         id="path1046-3"
         d="M 75.816788,56.366378 C 75.816787,69.414403 57.443275,86.6065 45.059371,86.6065 c -12.383904,0 -15.279291,-16.133764 -15.279292,-29.181789 0,-13.048025 12.023513,-23.890123 24.407417,-23.890123 12.383904,0 21.629292,9.783764 21.629292,22.83179 z"
         style="opacity:1;vector-effect:none;fill:#ffffff;fill-opacity:1;stroke:#dfdfdf;stroke-width:1;stroke-linecap:round;stroke-linejoin:round;stroke-miterlimit:4;stroke-dasharray:4, 4;stroke-dashoffset:0;stroke-opacity:1;paint-order:fill markers stroke" />
      <path
         sodipodi:nodetypes="cssssccsssc"
         inkscape:connector-curvature="0"
         id="path1057"
         d="m 21.381936,84.670158 c -13.0300796,-25.830677 -2.26987,-46.248427 7.37705,-54.192941 9.64691,-7.944515 30.08539,-14.202469 45.68095,-4.823455 14.84608,8.928275 21.56369,31.77806 13.90291,48.234555 C 80.682066,90.344812 53.443729,105.09891 42.661886,96.586928 39.353467,93.975018 35.911468,89.786889 33.016301,84.784927 26.778538,73.249854 59.760807,82.055563 65.905388,70.977706 68.539581,65.475211 43.099287,15.004603 69.610292,36.073824 101.56651,61.470546 41.068854,43.659102 34.409165,52.915788 28.688555,60.867194 58.684605,87.581387 47.649842,90.574192 36.593021,93.57298 25.722896,92.514689 21.381936,84.670158 Z"
         style="fill:none;stroke:#000000;stroke-width:0.89999998;stroke-linecap:round;stroke-linejoin:round;stroke-miterlimit:4;stroke-dasharray:none;stroke-opacity:1" />
    </g>
    <g
       id="g1114"
       transform="translate(85.190846,2.8235995)">
      <path
         sodipodi:nodetypes="cssssssssssscsssscsssccssssssscscssssssssssssc"
         inkscape:connector-curvature="0"
         id="path1069-3"
         d="m 159.24031,87.313378 c -3.54091,-4.38849 -11.82164,-11.929234 -11.54613,-28.518501 0.0887,-5.340728 -1.59586,-18.158982 18.63709,-22.054137 7.55983,-1.455385 17.90266,6.572386 19.35565,20.880012 0.72465,7.135736 -1.19371,16.22417 -12.67018,15.007119 -4.38431,-0.464947 -16.07895,1.012801 -9.8124,-20.244805 0.38561,-1.308063 5.10751,-19.116126 27.72347,-13.544128 11.21338,2.762693 12.05622,13.204011 5.74986,30.995999 -2.62998,7.419888 -8.29622,15.105936 -14.53117,18.73231 -6.49517,3.777723 -14.3264,-2.821906 -14.31859,-2.825925 3.50814,-1.804649 9.93939,-6.954208 10.53875,-7.522022 1.25677,-1.190625 9.26042,-11.641667 10.98021,-17.131771 1.71979,-5.490104 2.38125,-12.633854 -0.8599,-15.08125 -3.24114,-2.447396 -10.58333,-1.190625 -14.88281,4.564063 -4.29948,5.754687 -6.28385,12.567708 -1.98437,13.890625 4.29948,1.322916 6.87916,-3.307292 6.28385,-6.217709 -0.59531,-2.910416 -3.77031,-11.509375 -8.06979,-13.427604 -4.29948,-1.918229 -8.92969,0.132292 -11.8401,5.357813 -2.91042,5.22552 -4.10105,12.170833 0.7276,21.10052 4.82865,8.929688 10.18646,14.485938 16.00729,15.875 5.82083,1.389063 13.03073,-0.529166 17.52865,-3.241145 4.49791,-2.71198 9.19427,-6.879167 11.50937,-14.552084 2.31511,-7.672916 1.78594,-16.536458 4.43177,-24.010937 2.64584,-7.474479 6.68073,-17.660937 14.61823,-17.396354 7.9375,0.264583 20.96824,6.217708 20.63751,17.92552 -0.33074,11.707813 -4.82864,24.738542 -15.87501,23.680209 -11.04635,-1.058334 -15.61042,-10.980209 -22.225,-23.481771 -6.61458,-12.501562 -12.96458,-17.330208 -16.33802,-18.057812 -3.37344,-0.727604 -21.43125,-1.190625 -29.43489,3.902604 -8.00365,5.093229 -16.53646,16.205729 -16.99948,28.310416 -0.46302,12.104688 7.40833,24.143229 9.525,25.135417 2.11666,0.992187 7.32097,2.101286 13.02718,0.464259 5.7062,-1.637025 6.36101,8.185129 6.36101,8.185129 -2.43215,0.795128 -9.21412,2.291837 -13.00267,1.870887 -3.78854,-0.420949 -13.47038,0.561266 -18.89595,-9.72861 -5.42557,-10.289876 -7.26718,-21.561457 -5.94426,-32.806248 1.32292,-11.244792 9.98802,-24.738542 19.18229,-28.707292 9.19427,-3.96875 21.43125,-8.466666 36.5125,-4.960937 15.08125,3.505729 17.13177,10.384896 23.0849,20.703645 5.95312,10.31875 9.85572,21.034375 15.0151,21.100521 5.15937,0.06615 8.33437,-15.941146 3.43958,-20.174479 -4.89479,-4.233333 -8.86354,-7.540625 -12.7,4.431771 -3.83646,11.972396 -4.23333,26.789062 -6.41614,31.022396 -2.18281,4.233333 -7.9375,16.205729 -23.54792,18.388541 -15.61042,2.182813 -17.38419,-0.525843 -20.56195,-2.011772 -2.12014,-0.991386 -4.35095,-1.337355 -8.42013,-5.827483 z"
         style="opacity:1;fill:#818181;fill-opacity:1;stroke:#dfdfdf;stroke-width:1;stroke-linecap:round;stroke-linejoin:round;stroke-miterlimit:4;stroke-dasharray:2.00000006, 4.00000011;stroke-dashoffset:0;stroke-opacity:1" />
      <path
         sodipodi:nodetypes="cssssssssssscsssscsssccssssssscscssssssssssssc"
         inkscape:connector-curvature="0"
         id="path1069"
         d="m 159.24031,87.313378 c -3.54091,-4.388489 -11.82164,-11.929235 -11.54613,-28.518501 0.0887,-5.340729 -1.59586,-18.158982 18.63709,-22.054137 7.55983,-1.455385 17.90266,6.572386 19.35565,20.880013 0.72465,7.135734 -1.19371,16.22417 -12.67018,15.007117 -4.38431,-0.464945 -16.07895,1.012803 -9.8124,-20.244805 0.38561,-1.308062 5.10751,-19.116125 27.72347,-13.544127 11.21338,2.762693 12.05622,13.204012 5.74986,30.995999 -2.62998,7.419888 -8.29622,15.105935 -14.53117,18.732309 -6.49517,3.777723 -14.3264,-2.821904 -14.31859,-2.825924 3.50814,-1.804648 9.93939,-6.954209 10.53875,-7.522022 1.25677,-1.190625 9.26042,-11.641667 10.98021,-17.131771 1.71979,-5.490104 2.38125,-12.633854 -0.8599,-15.08125 -3.24114,-2.447396 -10.58333,-1.190625 -14.88281,4.564063 -4.29948,5.754687 -6.28385,12.567708 -1.98437,13.890624 4.29948,1.322917 6.87916,-3.307291 6.28385,-6.217708 -0.59531,-2.910416 -3.77031,-11.509375 -8.06979,-13.427604 -4.29948,-1.918229 -8.92969,0.132292 -11.8401,5.357813 -2.91042,5.22552 -4.10105,12.170833 0.7276,21.10052 4.82865,8.929688 10.18646,14.485938 16.00729,15.875 5.82083,1.389062 13.03073,-0.529167 17.52865,-3.241146 4.49791,-2.711979 9.19427,-6.879166 11.50937,-14.552083 2.31511,-7.672917 1.78594,-16.536458 4.43177,-24.010937 2.64584,-7.474479 6.68073,-17.660937 14.61823,-17.396354 7.9375,0.264583 20.96823,6.217708 20.6375,17.925521 -0.33073,11.707812 -4.82864,24.738541 -15.875,23.680208 -11.04635,-1.058334 -15.61042,-10.980209 -22.225,-23.481771 -6.61458,-12.501562 -12.96458,-17.330208 -16.33802,-18.057812 -3.37344,-0.727604 -21.43125,-1.190625 -29.43489,3.902604 -8.00365,5.093229 -16.53646,16.205729 -16.99948,28.310416 -0.46302,12.104688 7.40833,24.143229 9.525,25.135417 2.11666,0.992187 7.32097,2.101286 13.02718,0.464259 5.7062,-1.637025 6.36101,8.185129 6.36101,8.185129 -2.43215,0.795127 -9.21412,2.291836 -13.00267,1.870887 -3.78854,-0.42095 -13.47038,0.561265 -18.89595,-9.72861 -5.42557,-10.289876 -7.26718,-21.561457 -5.94426,-32.806248 1.32292,-11.244792 9.98802,-24.738542 19.18229,-28.707292 9.19427,-3.96875 21.43125,-8.466666 36.5125,-4.960937 15.08125,3.505729 17.13177,10.384896 23.0849,20.703645 5.95312,10.31875 9.85572,21.034375 15.0151,21.100521 5.15937,0.06615 8.33437,-15.941146 3.43958,-20.174479 -4.89479,-4.233333 -8.86354,-7.540625 -12.7,4.431771 -3.83646,11.972396 -4.23333,26.789062 -6.41614,31.022395 -2.18281,4.233334 -7.9375,16.205729 -23.54792,18.388542 -15.61042,2.182812 -17.38419,-0.525843 -20.56195,-2.011773 -2.12014,-0.991386 -4.35095,-1.337354 -8.42013,-5.827482 z"
         style="fill:#c5c5c5;fill-opacity:1;stroke:none;stroke-width:0.26458332px;stroke-linecap:butt;stroke-linejoin:miter;stroke-opacity:1" />
      <path
         sodipodi:nodetypes="csssssscsscssssssssssssssssssssccsscsssscscssssssssc"
         inkscape:connector-curvature="0"
         id="path1076"
         d="m 185.16979,20.443446 c -12.03854,-1.322916 -32.17152,1.245423 -41.2335,13.482402 -9.06198,12.236979 -11.32964,24.184316 -8.42976,36.906345 2.89987,12.722029 5.89329,23.479627 23.19899,24.134436 17.3057,0.65481 30.96318,-11.973673 34.98558,-22.544182 4.02241,-10.570512 13.18976,-34.330771 1e-5,-39.382164 -13.18975,-5.051395 -22.63774,8.325444 -26.37951,13.751016 -3.74177,5.42557 -6.64165,18.521778 -2.24506,22.26355 4.39658,3.741774 32.01277,10.988471 34.07075,1.727581 2.05797,-9.260888 -18.63594,-32.690755 -30.70316,-32.690755 -12.06722,0 -18.04935,8.617429 -18.79771,12.546291 -0.74835,3.928861 -2.58049,15.055936 2.93862,24.597456 5.51912,9.541524 11.55605,18.608676 26.4296,19.263488 14.87355,0.654809 30.86963,-9.728613 32.74052,-23.292541 1.87089,-13.563928 4.67722,-36.575834 12.72203,-35.079125 8.04481,1.49671 13.65747,9.354434 8.51253,21.234564 -5.14494,11.88013 -12.72203,3.741775 -21.04747,-14.592916 -8.32545,-18.334689 -16.18317,-19.831399 -19.8314,-20.860386 -3.64823,-1.028988 -4.39658,1.590253 -7.85772,1.122532 -3.46114,-0.467722 -26.66014,0.09354 -35.92103,11.693041 -9.26089,11.599498 -12.62848,24.882793 -9.35443,37.137102 3.27405,12.254307 11.5995,26.566588 32.36634,17.025067 20.76684,-9.541521 26.09887,-31.33735 24.60216,-38.727353 -1.49671,-7.390003 -11.50596,-11.880131 -19.73786,-7.76418 -8.2319,4.115951 -17.49279,24.41507 -4.67721,26.379501 12.81557,1.964431 13.47038,-15.996081 4.77076,-23.666714 -8.69963,-7.670637 -19.64431,-5.799749 -23.85381,6.641647 -4.20949,12.441396 4.02241,29.372919 13.18975,35.079125 9.16735,5.706202 22.26355,9.073795 34.05014,-2.245064 11.78659,-11.318864 10.7576,-23.573173 11.88013,-30.86963 1.12253,-7.29646 5.33203,-27.502035 18.89596,-19.176589 13.56393,8.325444 5.05139,25.537603 1.49671,28.905199 -3.55469,3.367595 -10.19634,1.309621 -13.56393,-4.022408 -3.3676,-5.332026 -9.44798,-19.083043 -13.75102,-24.227981 -4.30304,-5.144938 -8.13836,-8.886712 -13.09621,-10.196332 -4.95784,-1.309621 -4.11595,1.30962 -7.95126,1.216076 -3.83532,-0.09354 -18.52178,-0.187089 -27.59558,6.454559 -9.0738,6.641649 0.51767,16.391815 1.54666,28.552578 1.02899,12.160766 -8.3754,26.825667 -0.9854,27.1063 7.39001,0.280633 21.14102,-1.496708 31.05672,-20.018486 9.9157,-18.521778 2.53092,-25.005675 -2.98872,-25.060481 -9.42172,-0.09354 -18.78606,12.244807 -16.89472,18.865805 2.61145,9.141867 12.49344,1.33037 12.11926,-3.066214 -0.37417,-4.396584 -6.73519,-17.960512 -14.49937,-16.276714 -7.76418,1.683798 -18.1476,15.434815 -4.77076,34.892038 13.37684,19.457219 32.36634,9.915699 39.47571,2.151517 7.10937,-7.764179 7.76418,-23.292538 8.60608,-29.653552 0.8419,-6.361015 6.64165,-25.163426 20.57975,-19.737855 13.93811,5.425571 16.18317,19.737855 8.51253,31.056719 -7.67063,11.318864 -18.9895,8.512535 -27.87621,-9.822156 C 200.98756,33.320914 195.1956,39.218102 192.03114,36.220788 189.8568,34.161296 188.24797,21.129907 185.16979,20.443446 Z"
         style="fill:none;stroke:#000000;stroke-width:0.69999999;stroke-linecap:butt;stroke-linejoin:miter;stroke-miterlimit:4;stroke-dasharray:none;stroke-opacity:1" />
    </g>
    <path
       style="fill:none;stroke:#000000;stroke-width:0.89999998;stroke-linecap:butt;stroke-linejoin:miter;stroke-miterlimit:4;stroke-dasharray:none;stroke-opacity:1"
       d="m 128.01881,81.301353 c -7.91058,-18.852171 -6.8088,-39.605251 14.33222,-51.766011 21.14102,-12.16076 42.37558,-6.36101 49.11078,11.22532 6.73519,17.586336 2.5672,34.778548 -10.99673,44.694248 -18.98777,13.880707 -34.89518,18.27487 -38.76886,-4.657273 -2.33861,-13.844561 12.08328,-26.698882 19.56682,-28.756858 7.48355,-2.057974 22.27054,7.514008 17.93781,14.71856 -5.86529,9.752915 -38.31431,25.920439 -47.6927,25.267513 -14.78,-1.028988 -18.29228,-42.43701 -7.30472,-54.91442 16.55735,-18.80241 31.61799,-14.59291 46.58508,-8.79316 11.07993,4.29347 3.83532,19.924937 4.39658,33.956586 0.56127,14.031651 -1.68493,22.853025 -16.46494,30.523659 -14.78,7.670643 -20.30907,-0.163786 -22.26241,-8.447195 -3.19754,-13.559602 6.54535,-35.74999 21.98017,-29.201881 11.24652,4.771254 -0.93269,21.437701 -6.35827,24.61821 -5.42557,3.180506 -19.29007,12.66448 -24.06083,1.532702 z"
       id="path1046-0"
       inkscape:connector-curvature="0"
       sodipodi:nodetypes="cssssssssssssssc" />
    <path
       style="fill:none;stroke:#000000;stroke-width:0.89999998;stroke-linecap:butt;stroke-linejoin:miter;stroke-miterlimit:4;stroke-dasharray:none;stroke-opacity:1"
       d="m 544.31396,-72.823063 c -7.91057,-18.852171 -7.86713,-36.694827 13.27389,-48.855587 21.14103,-12.16077 42.37559,-6.36102 49.11078,11.22532 6.73519,17.586331 6.54811,36.482285 -13.47038,48.830138 -20.01849,12.347852 -32.17516,14.096002 -36.29521,-8.793168 -3.36759,-18.708867 2.89988,-24.41507 10.38343,-26.473047 7.48354,-2.057974 17.77342,10.476966 13.00266,17.399246 -4.80695,6.97479 -19.43327,18.706984 -28.81166,18.054058 -14.78,-1.028988 -23.05478,-40.188057 -12.06722,-52.665457 16.55735,-18.80241 31.61799,-14.59292 46.58508,-8.79317 11.07993,4.29347 18.42824,13.93811 18.9895,27.969754 0.56127,14.03165 -8.98025,26.717688 -23.76026,34.388322 -14.78,7.670638 -17.5759,-3.16796 -19.27013,-9.879706 -2.43215,-9.635067 0.46772,-24.508616 9.9157,-20.018486 11.03407,5.243912 -1.87089,15.902535 -7.29646,19.083044 -5.42557,3.180506 -15.51896,9.660519 -20.28972,-1.471261 z"
       id="path1046-6-9"
       inkscape:connector-curvature="0"
       sodipodi:nodetypes="cssssssssssssssc" />
    <path
       style="fill:none;stroke:#000000;stroke-width:0.89999998;stroke-linecap:butt;stroke-linejoin:miter;stroke-miterlimit:4;stroke-dasharray:none;stroke-opacity:1"
       d="m 640.74468,-69.829638 c -7.91057,-18.852171 -2.41408,-43.747802 19.88848,-53.618092 14.92332,-6.60451 22.48152,-0.4101 35.22015,9.10865 11.23276,8.39352 13.82415,32.910418 -1.82871,47.242646 -17.34712,15.883538 -29.66162,19.784544 -33.78167,-3.104626 -3.36759,-18.708867 2.89988,-24.41507 10.38343,-26.473047 7.48354,-2.057974 17.77342,10.476966 13.00266,17.399246 -4.80695,6.97479 -19.43327,18.706984 -28.81166,18.054058 -14.78,-1.028988 -14.05895,-35.293265 -3.07139,-47.770667 16.55735,-18.80241 24.60654,-21.2075 39.57363,-15.40775 11.07993,4.29347 18.42824,19.49435 18.9895,33.526002 0.56127,14.03165 -10.56775,27.511438 -25.34776,35.182072 -14.78,7.670646 -17.97278,-7.798168 -19.66701,-14.509914 -2.43215,-9.635067 0.46772,-24.508616 9.9157,-20.018486 11.03407,5.243912 -1.87089,15.902535 -7.29646,19.083044 -5.42557,3.180506 -22.39813,12.438644 -27.16889,1.306864 z"
       id="path1046-6-7"
       inkscape:connector-curvature="0"
       sodipodi:nodetypes="cssssssssssssssc" />
  </g>
</svg>
