<?xml version="1.0" encoding="UTF-8" standalone="no"?>
<!-- Created with Inkscape (http://www.inkscape.org/) -->

<svg
   xmlns:dc="http://purl.org/dc/elements/1.1/"
   xmlns:cc="http://creativecommons.org/ns#"
   xmlns:rdf="http://www.w3.org/1999/02/22-rdf-syntax-ns#"
   xmlns:svg="http://www.w3.org/2000/svg"
   xmlns="http://www.w3.org/2000/svg"
   xmlns:sodipodi="http://sodipodi.sourceforge.net/DTD/sodipodi-0.dtd"
   xmlns:inkscape="http://www.inkscape.org/namespaces/inkscape"
   width="433.34244mm"
   height="132.64479mm"
   viewBox="0 0 433.34244 132.64479"
   version="1.1"
   id="svg987"
   sodipodi:docname="parallelstrands.svg"
   inkscape:version="0.92.5 (2060ec1f9f, 2020-04-08)">
  <defs
     id="defs981">
    <marker
       inkscape:stockid="Arrow2Lstart"
       orient="auto"
       refY="0"
       refX="0"
       id="marker2356"
       style="overflow:visible"
       inkscape:isstock="true">
      <path
         id="path2354"
         style="fill:#000000;fill-opacity:1;fill-rule:evenodd;stroke:#000000;stroke-width:0.625;stroke-linejoin:round;stroke-opacity:1"
         d="M 8.7185878,4.0337352 -2.2072895,0.01601326 8.7185884,-4.0017078 c -1.7454984,2.3720609 -1.7354408,5.6174519 -6e-7,8.035443 z"
         transform="matrix(1.1,0,0,1.1,1.1,0)"
         inkscape:connector-curvature="0" />
    </marker>
    <marker
       inkscape:stockid="Arrow2Mend"
       orient="auto"
       refY="0"
       refX="0"
       id="Arrow2Mend"
       style="overflow:visible"
       inkscape:isstock="true">
      <path
         id="path1953"
         style="fill:#000000;fill-opacity:1;fill-rule:evenodd;stroke:#000000;stroke-width:0.625;stroke-linejoin:round;stroke-opacity:1"
         d="M 8.7185878,4.0337352 -2.2072895,0.01601326 8.7185884,-4.0017078 c -1.7454984,2.3720609 -1.7354408,5.6174519 -6e-7,8.035443 z"
         transform="scale(-0.6)"
         inkscape:connector-curvature="0" />
    </marker>
    <marker
       inkscape:stockid="Arrow2Lstart"
       orient="auto"
       refY="0"
       refX="0"
       id="Arrow2Lstart"
       style="overflow:visible"
       inkscape:isstock="true">
      <path
         id="path1944"
         style="fill:#000000;fill-opacity:1;fill-rule:evenodd;stroke:#000000;stroke-width:0.625;stroke-linejoin:round;stroke-opacity:1"
         d="M 8.7185878,4.0337352 -2.2072895,0.01601326 8.7185884,-4.0017078 c -1.7454984,2.3720609 -1.7354408,5.6174519 -6e-7,8.035443 z"
         transform="matrix(1.1,0,0,1.1,1.1,0)"
         inkscape:connector-curvature="0" />
    </marker>
    <marker
       inkscape:stockid="Arrow2Lend"
       orient="auto"
       refY="0"
       refX="0"
       id="marker1852"
       style="overflow:visible"
       inkscape:isstock="true">
      <path
         id="path1850"
         style="fill:#000000;fill-opacity:1;fill-rule:evenodd;stroke:#000000;stroke-width:0.625;stroke-linejoin:round;stroke-opacity:1"
         d="M 8.7185878,4.0337352 -2.2072895,0.01601326 8.7185884,-4.0017078 c -1.7454984,2.3720609 -1.7354408,5.6174519 -6e-7,8.035443 z"
         transform="matrix(-1.1,0,0,-1.1,-1.1,0)"
         inkscape:connector-curvature="0" />
    </marker>
    <marker
       inkscape:isstock="true"
       style="overflow:visible"
       id="marker1578"
       refX="0"
       refY="0"
       orient="auto"
       inkscape:stockid="Arrow2Lend"
       inkscape:collect="always">
      <path
         transform="matrix(-1.1,0,0,-1.1,-1.1,0)"
         d="M 8.7185878,4.0337352 -2.2072895,0.01601326 8.7185884,-4.0017078 c -1.7454984,2.3720609 -1.7354408,5.6174519 -6e-7,8.035443 z"
         style="fill:#000000;fill-opacity:1;fill-rule:evenodd;stroke:#000000;stroke-width:0.625;stroke-linejoin:round;stroke-opacity:1"
         id="path1576"
         inkscape:connector-curvature="0" />
    </marker>
    <marker
       inkscape:stockid="Arrow2Lend"
       orient="auto"
       refY="0"
       refX="0"
       id="marker1496"
       style="overflow:visible"
       inkscape:isstock="true"
       inkscape:collect="always">
      <path
         id="path1494"
         style="fill:#000000;fill-opacity:1;fill-rule:evenodd;stroke:#000000;stroke-width:0.625;stroke-linejoin:round;stroke-opacity:1"
         d="M 8.7185878,4.0337352 -2.2072895,0.01601326 8.7185884,-4.0017078 c -1.7454984,2.3720609 -1.7354408,5.6174519 -6e-7,8.035443 z"
         transform="matrix(-1.1,0,0,-1.1,-1.1,0)"
         inkscape:connector-curvature="0" />
    </marker>
    <marker
       inkscape:isstock="true"
       style="overflow:visible"
       id="marker1420"
       refX="0"
       refY="0"
       orient="auto"
       inkscape:stockid="Arrow2Lend"
       inkscape:collect="always">
      <path
         transform="matrix(-1.1,0,0,-1.1,-1.1,0)"
         d="M 8.7185878,4.0337352 -2.2072895,0.01601326 8.7185884,-4.0017078 c -1.7454984,2.3720609 -1.7354408,5.6174519 -6e-7,8.035443 z"
         style="fill:#000000;fill-opacity:1;fill-rule:evenodd;stroke:#000000;stroke-width:0.625;stroke-linejoin:round;stroke-opacity:1"
         id="path1418"
         inkscape:connector-curvature="0" />
    </marker>
    <marker
       inkscape:stockid="Arrow2Lend"
       orient="auto"
       refY="0"
       refX="0"
       id="marker1350"
       style="overflow:visible"
       inkscape:isstock="true"
       inkscape:collect="always">
      <path
         id="path1348"
         style="fill:#000000;fill-opacity:1;fill-rule:evenodd;stroke:#000000;stroke-width:0.625;stroke-linejoin:round;stroke-opacity:1"
         d="M 8.7185878,4.0337352 -2.2072895,0.01601326 8.7185884,-4.0017078 c -1.7454984,2.3720609 -1.7354408,5.6174519 -6e-7,8.035443 z"
         transform="matrix(-1.1,0,0,-1.1,-1.1,0)"
         inkscape:connector-curvature="0" />
    </marker>
    <marker
       inkscape:stockid="Arrow1Lend"
       orient="auto"
       refY="0"
       refX="0"
       id="Arrow1Lend"
       style="overflow:visible"
       inkscape:isstock="true">
      <path
         id="path913"
         d="M 0,0 5,-5 -12.5,0 5,5 Z"
         style="fill:#000000;fill-opacity:1;fill-rule:evenodd;stroke:#000000;stroke-width:1.00000003pt;stroke-opacity:1"
         transform="matrix(-0.8,0,0,-0.8,-10,0)"
         inkscape:connector-curvature="0" />
    </marker>
    <marker
       inkscape:stockid="Arrow1Lstart"
       orient="auto"
       refY="0"
       refX="0"
       id="marker2581"
       style="overflow:visible"
       inkscape:isstock="true">
      <path
         id="path2579"
         d="M 0,0 5,-5 -12.5,0 5,5 Z"
         style="fill:#000000;fill-opacity:1;fill-rule:evenodd;stroke:#000000;stroke-width:1.00000003pt;stroke-opacity:1"
         transform="matrix(0.8,0,0,0.8,10,0)"
         inkscape:connector-curvature="0" />
    </marker>
    <marker
       inkscape:stockid="Arrow1Lstart"
       orient="auto"
       refY="0"
       refX="0"
       id="marker2547"
       style="overflow:visible"
       inkscape:isstock="true">
      <path
         id="path2545"
         d="M 0,0 5,-5 -12.5,0 5,5 Z"
         style="fill:#000000;fill-opacity:1;fill-rule:evenodd;stroke:#000000;stroke-width:1.00000003pt;stroke-opacity:1"
         transform="matrix(0.8,0,0,0.8,10,0)"
         inkscape:connector-curvature="0" />
    </marker>
    <marker
       inkscape:stockid="Arrow1Lstart"
       orient="auto"
       refY="0"
       refX="0"
       id="marker2501"
       style="overflow:visible"
       inkscape:isstock="true">
      <path
         id="path2499"
         d="M 0,0 5,-5 -12.5,0 5,5 Z"
         style="fill:#000000;fill-opacity:1;fill-rule:evenodd;stroke:#000000;stroke-width:1.00000003pt;stroke-opacity:1"
         transform="matrix(0.8,0,0,0.8,10,0)"
         inkscape:connector-curvature="0" />
    </marker>
    <marker
       inkscape:stockid="Arrow1Lstart"
       orient="auto"
       refY="0"
       refX="0"
       id="marker2467"
       style="overflow:visible"
       inkscape:isstock="true">
      <path
         id="path2465"
         d="M 0,0 5,-5 -12.5,0 5,5 Z"
         style="fill:#000000;fill-opacity:1;fill-rule:evenodd;stroke:#000000;stroke-width:1.00000003pt;stroke-opacity:1"
         transform="matrix(0.8,0,0,0.8,10,0)"
         inkscape:connector-curvature="0" />
    </marker>
    <marker
       inkscape:stockid="Arrow2Lstart"
       orient="auto"
       refY="0"
       refX="0"
       id="marker2356-7"
       style="overflow:visible"
       inkscape:isstock="true">
      <path
         inkscape:connector-curvature="0"
         id="path2354-0"
         style="fill:#000000;fill-opacity:1;fill-rule:evenodd;stroke:#000000;stroke-width:0.625;stroke-linejoin:round;stroke-opacity:1"
         d="M 8.7185878,4.0337352 -2.2072895,0.01601326 8.7185884,-4.0017078 c -1.7454984,2.3720609 -1.7354408,5.6174519 -6e-7,8.035443 z"
         transform="matrix(1.1,0,0,1.1,1.1,0)" />
    </marker>
    <marker
       inkscape:stockid="Arrow2Mend"
       orient="auto"
       refY="0"
       refX="0"
       id="Arrow2Mend-3"
       style="overflow:visible"
       inkscape:isstock="true">
      <path
         id="path1953-6"
         style="fill:#000000;fill-opacity:1;fill-rule:evenodd;stroke:#000000;stroke-width:0.625;stroke-linejoin:round;stroke-opacity:1"
         d="M 8.7185878,4.0337352 -2.2072895,0.01601326 8.7185884,-4.0017078 c -1.7454984,2.3720609 -1.7354408,5.6174519 -6e-7,8.035443 z"
         transform="scale(-0.6)"
         inkscape:connector-curvature="0" />
    </marker>
    <marker
       inkscape:stockid="Arrow2Mend"
       orient="auto"
       refY="0"
       refX="0"
       id="Arrow2Mend-3-7"
       style="overflow:visible"
       inkscape:isstock="true">
      <path
         id="path1953-6-5"
         style="fill:#000000;fill-opacity:1;fill-rule:evenodd;stroke:#000000;stroke-width:0.625;stroke-linejoin:round;stroke-opacity:1"
         d="M 8.7185878,4.0337352 -2.2072895,0.01601326 8.7185884,-4.0017078 c -1.7454984,2.3720609 -1.7354408,5.6174519 -6e-7,8.035443 z"
         transform="scale(-0.6)"
         inkscape:connector-curvature="0" />
    </marker>
    <marker
       inkscape:stockid="Arrow2Mend"
       orient="auto"
       refY="0"
       refX="0"
       id="Arrow2Mend-3-5"
       style="overflow:visible"
       inkscape:isstock="true">
      <path
         id="path1953-6-6"
         style="fill:#000000;fill-opacity:1;fill-rule:evenodd;stroke:#000000;stroke-width:0.625;stroke-linejoin:round;stroke-opacity:1"
         d="M 8.7185878,4.0337352 -2.2072895,0.01601326 8.7185884,-4.0017078 c -1.7454984,2.3720609 -1.7354408,5.6174519 -6e-7,8.035443 z"
         transform="scale(-0.6)"
         inkscape:connector-curvature="0" />
    </marker>
    <marker
       inkscape:stockid="Arrow2Mend"
       orient="auto"
       refY="0"
       refX="0"
       id="Arrow2Mend-3-9"
       style="overflow:visible"
       inkscape:isstock="true">
      <path
         id="path1953-6-1"
         style="fill:#000000;fill-opacity:1;fill-rule:evenodd;stroke:#000000;stroke-width:0.625;stroke-linejoin:round;stroke-opacity:1"
         d="M 8.7185878,4.0337352 -2.2072895,0.01601326 8.7185884,-4.0017078 c -1.7454984,2.3720609 -1.7354408,5.6174519 -6e-7,8.035443 z"
         transform="scale(-0.6)"
         inkscape:connector-curvature="0" />
    </marker>
  </defs>
  <sodipodi:namedview
     id="base"
     pagecolor="#ffffff"
     bordercolor="#666666"
     borderopacity="1.0"
     inkscape:pageopacity="0.0"
     inkscape:pageshadow="2"
     inkscape:zoom="0.5"
     inkscape:cx="393.62968"
     inkscape:cy="487.71398"
     inkscape:document-units="mm"
     inkscape:current-layer="layer1"
     showgrid="false"
     inkscape:snap-bbox="true"
     inkscape:bbox-nodes="true"
     inkscape:object-paths="true"
     inkscape:snap-intersection-paths="true"
     inkscape:snap-smooth-nodes="true"
     fit-margin-top="0"
     fit-margin-left="0"
     fit-margin-right="0"
     fit-margin-bottom="0"
     inkscape:window-width="1920"
     inkscape:window-height="1057"
     inkscape:window-x="1920"
     inkscape:window-y="23"
     inkscape:window-maximized="1"
     inkscape:snap-global="false"
     inkscape:snap-object-midpoints="true"
     inkscape:snap-bbox-midpoints="true"
     inkscape:object-nodes="true"
     inkscape:snap-nodes="true"
     inkscape:snap-bbox-edge-midpoints="true"
     inkscape:bbox-paths="true">
    <inkscape:grid
       type="xygrid"
       id="grid1233" />
  </sodipodi:namedview>
  <metadata
     id="metadata984">
    <rdf:RDF>
      <cc:Work
         rdf:about="">
        <dc:format>image/svg+xml</dc:format>
        <dc:type
           rdf:resource="http://purl.org/dc/dcmitype/StillImage" />
        <dc:title />
      </cc:Work>
    </rdf:RDF>
  </metadata>
  <g
     inkscape:label="Layer 1"
     inkscape:groupmode="layer"
     id="layer1"
     transform="translate(-4.5123712,26.808445)">
    <path
       style="fill:none;stroke:#000000;stroke-width:0.89999998;stroke-linecap:round;stroke-linejoin:round;stroke-miterlimit:4;stroke-dasharray:none;stroke-opacity:1;marker-end:url(#marker1350)"
       d="m 102.20166,-139.08439 c 25.07442,-40.57126 22.45064,-51.02124 0,-81.14252"
       id="path2116-5"
       inkscape:connector-curvature="0"
       sodipodi:nodetypes="cc" />
    <path
       style="fill:none;stroke:#000000;stroke-width:0.89999998;stroke-linecap:round;stroke-linejoin:round;stroke-miterlimit:4;stroke-dasharray:none;stroke-opacity:1;marker-end:url(#marker1420)"
       d="m 226.90535,-148.813 c -25.07442,-40.57126 -33.86759,-40.00999 0,-81.14252"
       id="path2114-4"
       inkscape:connector-curvature="0"
       sodipodi:nodetypes="cc" />
    <path
       style="fill:none;stroke:#000000;stroke-width:0.89999998;stroke-linecap:round;stroke-linejoin:round;stroke-miterlimit:4;stroke-dasharray:none;stroke-opacity:1;marker-end:url(#marker1496)"
       d="m 267.97253,-140.95528 c 25.07442,-40.57126 22.45064,-51.02124 0,-81.14252"
       id="path2116-5-4"
       inkscape:connector-curvature="0"
       sodipodi:nodetypes="cc" />
    <path
       style="fill:none;stroke:#000000;stroke-width:0.89999998;stroke-linecap:round;stroke-linejoin:round;stroke-miterlimit:4;stroke-dasharray:none;stroke-opacity:1;marker-end:url(#marker1578)"
       d="m 299.26982,-140.95528 c -25.07443,-40.57126 -33.86759,-40.00999 0,-81.14252"
       id="path2114-4-7"
       inkscape:connector-curvature="0"
       sodipodi:nodetypes="cc" />
    <circle
       style="opacity:1;fill:#000000;fill-opacity:1;stroke:none;stroke-width:0.66432709;stroke-linecap:round;stroke-linejoin:round;stroke-miterlimit:4;stroke-dasharray:none;stroke-dashoffset:0;stroke-opacity:1;paint-order:fill markers stroke"
       id="path1700-3-6"
       cx="282.41037"
       cy="-199.47966"
       r="1.9529985" />
    <circle
       style="opacity:1;fill:#000000;fill-opacity:1;stroke:none;stroke-width:0.66432709;stroke-linecap:round;stroke-linejoin:round;stroke-miterlimit:4;stroke-dasharray:none;stroke-dashoffset:0;stroke-opacity:1;paint-order:fill markers stroke"
       id="path1700-3-6-7"
       cx="282.20721"
       cy="-168.12065"
       r="1.9529986" />
    <circle
       style="opacity:1;fill:#000000;fill-opacity:1;stroke:none;stroke-width:0.66432709;stroke-linecap:round;stroke-linejoin:round;stroke-miterlimit:4;stroke-dasharray:none;stroke-dashoffset:0;stroke-opacity:1;paint-order:fill markers stroke"
       id="path1700-3-6-7-5"
       cx="163.0675"
       cy="-174.01924"
       r="1.9529986" />
    <path
       style="fill:none;stroke:#000000;stroke-width:0.90000004;stroke-linecap:round;stroke-linejoin:round;stroke-miterlimit:4;stroke-dasharray:none;stroke-opacity:1"
       d="m 189.91677,169.75202 c -33.4141,2.36262 -54.34011,-17.21333 -54.00259,21.93856 0.13386,15.52883 8.77542,43.8771 23.96365,42.86456 15.18822,-1.01255 13.50065,-13.16313 13.50065,-25.98875 0,-12.82561 -16.5383,-2.70013 -17.21333,-10.12549 -0.67503,-7.42536 1.68758,-15.18822 7.76288,-15.18822 6.07528,0 -5.63409,25.96771 -4.72524,30.71397 3.03765,15.86326 37.4643,20.92601 45.56469,17.55084 8.10039,-3.37516 15.86328,-19.57594 13.50065,-42.86456 -2.3626,-23.28862 -9.11294,-37.4643 -36.11424,-30.03894 -27.00129,7.42535 -9.45044,34.76417 12.82562,32.06404 22.27607,-2.70013 3.37516,-20.92601 -5.06274,-20.92601 z"
       id="path993-6"
       inkscape:connector-curvature="0"
       sodipodi:nodetypes="cssssssssssc" />
    <g
       id="g1055"
       transform="translate(25.585938,-139.16371)">
      <path
         sodipodi:nodetypes="cssssssssscc"
         inkscape:connector-curvature="0"
         id="path993-3-7"
         d="m 268.55902,28.728337 c -11.99774,2.153736 -18.39754,4.500327 -18.20387,26.966406 0.13387,15.528838 8.80503,44.251503 23.96366,42.864564 28.41739,-2.60005 -1.19864,-10.090608 1.44719,-17.889141 4.12069,-12.145629 -4.48484,-10.799738 -5.15987,-18.225095 -0.67503,-7.425362 2.81648,-13.413486 8.88541,-13.691518 8.16763,-0.374177 12.07623,3.186648 14.83494,7.154333 3.22472,4.63794 4.94397,8.880089 10.10196,5.750724 3.12181,-1.894014 5.94759,-2.925047 5.45585,-10.872398 -1.44562,-23.363476 -6.4937,-29.419491 -13.28942,-28.16806 -27.5406,5.071595 -38.81236,23.234727 -16.53823,25.950758 23.55149,-0.153747 6.10352,-22.863294 -11.49762,-19.840573 z"
         style="fill:none;stroke:#000000;stroke-width:0.9000001;stroke-linecap:round;stroke-linejoin:round;stroke-miterlimit:4;stroke-dasharray:none;stroke-opacity:1" />
      <circle
         r="1.9529986"
         cy="48.353302"
         cx="279.77472"
         id="path1700-3-6-7-5-3"
         style="opacity:1;fill:#000000;fill-opacity:1;stroke:none;stroke-width:0.66432709;stroke-linecap:round;stroke-linejoin:round;stroke-miterlimit:4;stroke-dasharray:none;stroke-dashoffset:0;stroke-opacity:1;paint-order:fill markers stroke" />
      <path
         inkscape:connector-curvature="0"
         id="path4742-6-02-9"
         d="m 313.20222,46.194011 -3.24131,6.447582 -4.2951,-5.799085"
         style="fill:none;stroke:#000000;stroke-width:0.69999999;stroke-linecap:round;stroke-linejoin:round;stroke-miterlimit:4;stroke-dasharray:none;stroke-opacity:1" />
      <path
         inkscape:connector-curvature="0"
         id="path4742-6-2-7-2"
         d="m 275.59764,53.596971 -4.98571,5.217289 -2.41072,-6.801897"
         style="fill:none;stroke:#000000;stroke-width:0.69999999;stroke-linecap:round;stroke-linejoin:round;stroke-miterlimit:4;stroke-dasharray:none;stroke-opacity:1" />
      <path
         inkscape:connector-curvature="0"
         id="path4742-6-61-5-2"
         d="m 293.10528,34.333817 -1.69018,7.015744 -5.50131,-4.670441"
         style="fill:none;stroke:#000000;stroke-width:0.69999999;stroke-linecap:round;stroke-linejoin:round;stroke-miterlimit:4;stroke-dasharray:none;stroke-opacity:1" />
    </g>
    <g
       id="g1748"
       transform="translate(9.1015677,-139.15359)">
      <path
         sodipodi:nodetypes="cssssssssscc"
         inkscape:connector-curvature="0"
         id="path993-3"
         d="m 117.14938,31.066945 c -11.99774,2.153735 -18.958809,2.161719 -18.765139,24.627798 0.13387,15.528838 8.775429,43.877103 23.963659,42.864564 15.18822,-1.01255 9.38469,-4.931233 9.38469,-17.75685 0,-12.825613 -12.42234,-10.932029 -13.09737,-18.357386 -0.67503,-7.425362 2.81011,-13.69152 8.88541,-13.69152 6.07527,0 1.77635,24.305555 3.97439,28.609227 3.03764,5.947561 8.93327,5.070247 17.03365,1.695077 8.1004,-3.37516 11.74734,-4.983023 9.38471,-28.271645 -2.3626,-23.288621 -6.4937,-29.419489 -13.28942,-28.168058 -27.5406,5.071595 -31.33788,19.99358 -9.06375,22.709611 23.55149,-0.153747 -0.80969,-17.283539 -18.41083,-14.260818 z"
         style="fill:none;stroke:#000000;stroke-width:0.90000004;stroke-linecap:round;stroke-linejoin:round;stroke-miterlimit:4;stroke-dasharray:none;stroke-opacity:1" />
      <circle
         r="1.9529986"
         cy="76.269104"
         cx="131.31393"
         id="path1700-3-6-7-5-5"
         style="opacity:1;fill:#000000;fill-opacity:1;stroke:none;stroke-width:0.66432709;stroke-linecap:round;stroke-linejoin:round;stroke-miterlimit:4;stroke-dasharray:none;stroke-dashoffset:0;stroke-opacity:1;paint-order:fill markers stroke" />
      <path
         style="fill:none;stroke:#000000;stroke-width:0.69999999;stroke-linecap:round;stroke-linejoin:round;stroke-miterlimit:4;stroke-dasharray:none;stroke-opacity:1"
         d="m 161.77134,48.570008 -3.50109,6.310286 -4.05547,-5.969129"
         id="path4742-6-8"
         inkscape:connector-curvature="0" />
      <path
         style="fill:none;stroke:#000000;stroke-width:0.69999999;stroke-linecap:round;stroke-linejoin:round;stroke-miterlimit:4;stroke-dasharray:none;stroke-opacity:1"
         d="m 135.59672,85.274697 -2.75075,6.671641 -4.71619,-5.46213"
         id="path4742-6-6-7"
         inkscape:connector-curvature="0" />
      <path
         style="fill:none;stroke:#000000;stroke-width:0.69999999;stroke-linecap:round;stroke-linejoin:round;stroke-miterlimit:4;stroke-dasharray:none;stroke-opacity:1"
         d="m 127.14935,66.108175 3.86497,-6.094208 3.6986,6.196591"
         id="path4742-6-2-9"
         inkscape:connector-curvature="0" />
      <path
         style="fill:none;stroke:#000000;stroke-width:0.69999999;stroke-linecap:round;stroke-linejoin:round;stroke-miterlimit:4;stroke-dasharray:none;stroke-opacity:1"
         d="m 135.74294,49.42849 -5.2359,-4.966162 6.79283,-2.436135"
         id="path4742-6-61-2"
         inkscape:connector-curvature="0" />
    </g>
    <g
       id="g1075"
       transform="translate(-9.6708028e-6,-138.64167)">
      <path
         sodipodi:nodetypes="cssssccscc"
         inkscape:connector-curvature="0"
         id="path993-3-7-5"
         d="m 377.97777,27.977786 c -11.99774,2.153736 -18.39754,4.500327 -18.20387,26.966406 0.13387,15.528838 9.46872,47.512608 23.96366,42.864564 30.79864,-9.876091 5.34457,-13.282091 -0.53719,-17.756849 -4.35854,-3.315923 -6.86609,-10.402863 -7.54112,-17.82822 -0.67503,-7.425362 5.30485,-16.839926 11.38015,-16.839926 15.3631,1.53004 31.59349,9.910355 31.3282,-6.199243 -0.16374,-7.946534 -5.55826,-18.568348 -12.35398,-17.316917 -27.5406,5.071595 -39.84135,28.847387 -17.56722,31.563419 23.55149,-0.153747 7.13251,-28.475955 -10.46863,-25.453234 z"
         style="fill:none;stroke:#000000;stroke-width:0.89999998;stroke-linecap:round;stroke-linejoin:round;stroke-miterlimit:4;stroke-dasharray:none;stroke-opacity:1" />
      <circle
         r="1.9529986"
         cy="47.406574"
         cx="399.81345"
         id="path1700-3-6-7-5-6"
         style="opacity:1;fill:#030000;fill-opacity:1;stroke:none;stroke-width:0.66432709;stroke-linecap:round;stroke-linejoin:round;stroke-miterlimit:4;stroke-dasharray:none;stroke-dashoffset:0;stroke-opacity:1;paint-order:fill markers stroke" />
      <circle
         r="1.9529986"
         cy="49.986263"
         cx="379.70505"
         id="path1700-3-6-7-5-2"
         style="opacity:1;fill:#030000;fill-opacity:1;stroke:none;stroke-width:0.66432709;stroke-linecap:round;stroke-linejoin:round;stroke-miterlimit:4;stroke-dasharray:none;stroke-dashoffset:0;stroke-opacity:1;paint-order:fill markers stroke" />
      <path
         inkscape:connector-curvature="0"
         id="path4742-6-02-9-8"
         d="m 421.52493,31.519228 -3.24131,6.447582 -4.2951,-5.799085"
         style="fill:none;stroke:#000000;stroke-width:0.69999999;stroke-linecap:round;stroke-linejoin:round;stroke-miterlimit:4;stroke-dasharray:none;stroke-opacity:1" />
      <path
         inkscape:connector-curvature="0"
         id="path4742-6-2-7-2-9"
         d="m 378.81161,58.840825 -2.65008,6.71226 -4.79782,-5.390576"
         style="fill:none;stroke:#000000;stroke-width:0.69999999;stroke-linecap:round;stroke-linejoin:round;stroke-miterlimit:4;stroke-dasharray:none;stroke-opacity:1" />
      <path
         inkscape:connector-curvature="0"
         id="path4742-6-61-5-2-7"
         d="m 392.98778,57.405587 -5.91006,-4.141071 6.3601,-3.409782"
         style="fill:none;stroke:#000000;stroke-width:0.69999999;stroke-linecap:round;stroke-linejoin:round;stroke-miterlimit:4;stroke-dasharray:none;stroke-opacity:1" />
    </g>
    <g
       id="g1753"
       transform="translate(3.3159189e-7,-139.00021)">
      <path
         sodipodi:nodetypes="cssssssssssc"
         inkscape:connector-curvature="0"
         id="path993"
         d="M 55.287817,33.194922 C 36.279544,33.686648 15.353535,17.291213 15.69105,56.443098 c 0.133861,15.528838 3.911119,43.128748 19.099349,42.116208 15.18822,-1.01255 13.50065,-13.163135 13.50065,-25.988752 0,-12.825613 -16.5383,-2.700128 -17.21333,-10.125485 -0.67503,-7.42536 1.68758,-15.188229 7.76288,-15.188229 6.07528,0 -5.63409,25.967715 -4.72524,30.713975 3.03765,15.863261 26.987335,16.061706 35.087725,12.686536 8.10039,-3.37516 14.371314,-19.472599 13.50065,-42.86456 C 82.024932,29.555564 70.223197,19.870012 57.066459,22.618151 29.654392,28.3439 48.177285,54.575993 60.350557,54.12093 82.774013,53.282693 63.717278,33.572192 55.287817,33.194922 Z"
         style="fill:none;stroke:#000000;stroke-width:0.89999998;stroke-linecap:round;stroke-linejoin:round;stroke-miterlimit:4;stroke-dasharray:none;stroke-opacity:1" />
      <circle
         r="1.9529986"
         cy="90.588562"
         cx="46.981499"
         id="path1700-3-6-7-5-9"
         style="opacity:1;fill:#000000;fill-opacity:1;stroke:none;stroke-width:0.66432709;stroke-linecap:round;stroke-linejoin:round;stroke-miterlimit:4;stroke-dasharray:none;stroke-dashoffset:0;stroke-opacity:1;paint-order:fill markers stroke" />
      <circle
         r="1.9529986"
         cy="65.518684"
         cx="36.785168"
         id="path1700-3-6-7-5-1"
         style="opacity:1;fill:#000000;fill-opacity:1;stroke:none;stroke-width:0.66432709;stroke-linecap:round;stroke-linejoin:round;stroke-miterlimit:4;stroke-dasharray:none;stroke-dashoffset:0;stroke-opacity:1;paint-order:fill markers stroke" />
      <path
         style="fill:none;stroke:#000000;stroke-width:0.69999999;stroke-linecap:round;stroke-linejoin:round;stroke-miterlimit:4;stroke-dasharray:none;stroke-opacity:1"
         d="m 86.499548,59.015704 -4.515709,5.629009 -2.990062,-6.567867"
         id="path4742-6"
         inkscape:connector-curvature="0" />
      <path
         style="fill:none;stroke:#000000;stroke-width:0.69999999;stroke-linecap:round;stroke-linejoin:round;stroke-miterlimit:4;stroke-dasharray:none;stroke-opacity:1"
         d="m 30.201445,78.176556 4.633929,-5.532094 2.850272,6.62973"
         id="path4742-6-6"
         inkscape:connector-curvature="0" />
      <path
         style="fill:none;stroke:#000000;stroke-width:0.69999999;stroke-linecap:round;stroke-linejoin:round;stroke-miterlimit:4;stroke-dasharray:none;stroke-opacity:1"
         d="m 52.408667,75.157532 -4.114526,5.928579 -3.43828,-6.34473"
         id="path4742-6-2"
         inkscape:connector-curvature="0" />
      <path
         style="fill:none;stroke:#000000;stroke-width:0.69999999;stroke-linecap:round;stroke-linejoin:round;stroke-miterlimit:4;stroke-dasharray:none;stroke-opacity:1"
         d="m 61.799451,58.526255 -5.235897,-4.966161 6.792835,-2.436135"
         id="path4742-6-61"
         inkscape:connector-curvature="0" />
    </g>
    <g
       id="g4842"
       transform="translate(17.274229,-139.15359)">
      <path
         sodipodi:nodetypes="cssssssssscc"
         inkscape:connector-curvature="0"
         id="path993-3-2"
         d="m 193.34938,31.066945 c -11.99774,2.153736 -18.95881,2.161719 -18.76514,24.627798 0.13387,15.528838 8.77543,43.877103 23.96366,42.864564 15.18822,-1.01255 -0.25277,-4.421352 3.02368,-16.821406 2.99341,-11.328904 -6.06133,-11.867473 -6.73636,-19.29283 -0.67503,-7.425362 4.30682,-13.691518 10.38212,-13.691518 6.07527,0 4.58268,13.080234 6.78072,17.383906 3.03764,5.947561 5.93985,13.489238 14.04023,10.114067 8.1004,-3.37516 10.43772,-2.176692 8.07509,-25.465314 -2.3626,-23.288623 -6.4937,-29.419491 -13.28942,-28.16806 -27.5406,5.071595 -38.63434,20.554847 -16.36021,23.270878 23.55149,-0.153747 6.48677,-17.844806 -11.11437,-14.822085 z"
         style="fill:none;stroke:#000000;stroke-width:0.9000001;stroke-linecap:round;stroke-linejoin:round;stroke-miterlimit:4;stroke-dasharray:none;stroke-opacity:1" />
      <path
         inkscape:connector-curvature="0"
         id="path4742-6-02"
         d="m 237.6811,47.231607 -3.2413,6.447582 -4.29511,-5.799085"
         style="fill:none;stroke:#000000;stroke-width:0.69999999;stroke-linecap:round;stroke-linejoin:round;stroke-miterlimit:4;stroke-dasharray:none;stroke-opacity:1" />
      <path
         inkscape:connector-curvature="0"
         id="path4742-6-2-7"
         d="m 199.0361,54.553814 -4.11453,5.928579 -3.43828,-6.34473"
         style="fill:none;stroke:#000000;stroke-width:0.69999999;stroke-linecap:round;stroke-linejoin:round;stroke-miterlimit:4;stroke-dasharray:none;stroke-opacity:1" />
      <path
         inkscape:connector-curvature="0"
         id="path4742-6-61-5"
         d="m 214.10028,48.22763 -6.79941,-2.417728 5.22242,-4.980324"
         style="fill:none;stroke:#000000;stroke-width:0.69999999;stroke-linecap:round;stroke-linejoin:round;stroke-miterlimit:4;stroke-dasharray:none;stroke-opacity:1" />
    </g>
    <path
       style="fill:none;stroke:#000000;stroke-width:0.90000004;stroke-linecap:round;stroke-linejoin:round;stroke-miterlimit:4;stroke-dasharray:none;stroke-opacity:1"
       d="m 70.286595,-150.77925 -6.671082,-2.7521 5.46309,-4.71508"
       id="path4742-6-0"
       inkscape:connector-curvature="0" />
    <path
       style="fill:none;stroke:#000000;stroke-width:0.60674834;stroke-linecap:butt;stroke-linejoin:miter;stroke-miterlimit:4;stroke-dasharray:none;stroke-opacity:1;marker-end:url(#Arrow2Mend-3)"
       d="m 89.483811,-77.196167 c 4.37846,-3.081143 5.606909,-3.150168 5.351451,-1.540571 -0.239172,1.506985 -0.50504,1.887733 2.270314,0.810826 2.135968,-0.828813 4.830684,-0.982829 4.830684,-0.982829"
       id="path1058"
       inkscape:connector-curvature="0"
       sodipodi:nodetypes="cssc" />
    <path
       style="fill:none;stroke:#000000;stroke-width:0.60674834;stroke-linecap:butt;stroke-linejoin:miter;stroke-miterlimit:4;stroke-dasharray:none;stroke-opacity:1;marker-end:url(#Arrow2Mend-3-7)"
       d="m 173.67371,-77.196167 c 4.37846,-3.081143 5.60691,-3.150168 5.35145,-1.540571 -0.23917,1.506985 -0.50504,1.887733 2.27032,0.810826 2.13597,-0.828813 4.83068,-0.982829 4.83068,-0.982829"
       id="path1058-3"
       inkscape:connector-curvature="0"
       sodipodi:nodetypes="cssc" />
    <path
       style="fill:none;stroke:#000000;stroke-width:0.60674834;stroke-linecap:butt;stroke-linejoin:miter;stroke-miterlimit:4;stroke-dasharray:none;stroke-opacity:1;marker-end:url(#Arrow2Mend-3-5)"
       d="m 257.48944,-77.196167 c 4.37846,-3.081143 5.60691,-3.150168 5.35145,-1.540571 -0.23917,1.506985 -0.50504,1.887733 2.27031,0.810826 2.13597,-0.828813 4.83069,-0.982829 4.83069,-0.982829"
       id="path1058-2"
       inkscape:connector-curvature="0"
       sodipodi:nodetypes="cssc" />
    <path
       style="fill:none;stroke:#000000;stroke-width:0.60674834;stroke-linecap:butt;stroke-linejoin:miter;stroke-miterlimit:4;stroke-dasharray:none;stroke-opacity:1;marker-end:url(#Arrow2Mend-3-9)"
       d="m 340.55681,-77.196167 c 4.37846,-3.081143 5.6069,-3.150168 5.35145,-1.540571 -0.23918,1.506985 -0.50504,1.887733 2.27031,0.810826 2.13597,-0.828813 4.83068,-0.982829 4.83068,-0.982829"
       id="path1058-27"
       inkscape:connector-curvature="0"
       sodipodi:nodetypes="cssc" />
    <g
       id="g1231"
       transform="matrix(1.1525332,0,0,1.1525332,236.221,-16.845814)"
       style="stroke-width:0.78088856;stroke-miterlimit:4;stroke-dasharray:none">
      <g
         style="stroke-width:0.78088856;stroke-miterlimit:4;stroke-dasharray:none"
         id="g1206">
        <path
           style="fill:none;stroke:#000000;stroke-width:0.78088856;stroke-linecap:butt;stroke-linejoin:miter;stroke-miterlimit:4;stroke-dasharray:none;stroke-opacity:1"
           d="m -192.86679,13.180685 c 32.92761,2.80633 61.09916,12.581712 91.40752,15.013866 30.30837,2.432153 59.273353,7.109367 77.608043,8.231902"
           id="path1186"
           inkscape:connector-curvature="0"
           sodipodi:nodetypes="csc" />
        <path
           style="fill:none;stroke:#000000;stroke-width:0.78088856;stroke-linecap:butt;stroke-linejoin:miter;stroke-miterlimit:4;stroke-dasharray:none;stroke-opacity:1"
           d="m -192.86679,37.857017 c 25.25697,-0.748356 26.48775,-1.243475 38.08725,14.097794 11.5995,15.341272 10.28988,28.25039 20.57976,34.424315 10.28987,6.173925 30.68254,5.425572 45.46254,3.741775 14.78001,-1.683801 46.738413,1.309619 64.886013,-2.806332"
           id="path1188"
           inkscape:connector-curvature="0"
           sodipodi:nodetypes="csssc" />
        <path
           sodipodi:nodetypes="csssc"
           style="fill:none;stroke:#000000;stroke-width:0.78088856;stroke-linecap:butt;stroke-linejoin:miter;stroke-miterlimit:4;stroke-dasharray:none;stroke-opacity:1"
           d="m -192.86679,50.622494 c 15.34127,-2.432154 31.35206,-14.944397 50.4351,-13.821865 19.08305,1.122531 25.44406,3.928864 34.42432,10.476965 8.98025,6.548104 34.42431,21.32811 51.26229,22.824818 16.83798,1.496708 15.494613,3.554685 32.893853,2.806332"
           id="path1190"
           inkscape:connector-curvature="0" />
        <path
           sodipodi:nodetypes="csc"
           style="fill:none;stroke:#000000;stroke-width:0.78088856;stroke-linecap:butt;stroke-linejoin:miter;stroke-miterlimit:4;stroke-dasharray:none;stroke-opacity:1"
           d="m -192.86679,62.024527 c 43.40457,-1.309621 82.80144,-19.798326 96.45892,-21.107947 13.65747,-1.309622 5.765983,-3.367596 72.556643,2.806331"
           id="path1192"
           inkscape:connector-curvature="0" />
        <path
           style="fill:none;stroke:#000000;stroke-width:0.78088856;stroke-linecap:butt;stroke-linejoin:miter;stroke-miterlimit:4;stroke-dasharray:none;stroke-opacity:1"
           d="m -192.86679,79.46722 c 46.2109,-16.089624 57.17029,-17.59671 67.83435,-36.679753 10.66405,-19.083044 11.97367,-41.1595064 46.2109,-35.3597578 34.23723,5.7997488 44.680433,13.5639288 54.970313,13.7510148"
           id="path1194"
           inkscape:connector-curvature="0"
           sodipodi:nodetypes="cssc" />
        <path
           sodipodi:nodetypes="cc"
           style="fill:none;stroke:#000000;stroke-width:0.78088856;stroke-linecap:butt;stroke-linejoin:miter;stroke-miterlimit:4;stroke-dasharray:none;stroke-opacity:1"
           d="M -192.86679,90.813484 C -150.02348,76.781834 -75.861877,51.019368 -23.851227,51.019368"
           id="path1196"
           inkscape:connector-curvature="0" />
      </g>
    </g>
    <rect
       style="opacity:1;fill:#e96cda;fill-opacity:1;stroke:none;stroke-width:0.89999998;stroke-linecap:round;stroke-linejoin:round;stroke-miterlimit:4;stroke-dasharray:none;stroke-dashoffset:0;stroke-opacity:1;paint-order:fill markers stroke"
       id="rect1235"
       width="26.458332"
       height="119.0625"
       x="-400.30011"
       y="-232.83032" />
    <rect
       style="opacity:1;fill:#e96cda;fill-opacity:1;stroke:none;stroke-width:0.89999998;stroke-linecap:round;stroke-linejoin:round;stroke-miterlimit:4;stroke-dasharray:none;stroke-dashoffset:0;stroke-opacity:1;paint-order:fill markers stroke"
       id="rect1237"
       width="21.166666"
       height="132.29167"
       x="-223.0293"
       y="-235.47615" />
    <g
       id="g1257"
       transform="matrix(1.2631578,0,0,1.2631578,710.62522,257.58249)"
       style="stroke-width:0.71250004;stroke-miterlimit:4;stroke-dasharray:none">
      <path
         inkscape:connector-curvature="0"
         id="path1239"
         d="m -373.84179,-209.01781 h 99.21875 c 6.61458,0 7.9375,13.22916 13.22916,13.22916 h 38.36459"
         style="fill:none;stroke:#000000;stroke-width:0.71250004;stroke-linecap:butt;stroke-linejoin:miter;stroke-miterlimit:4;stroke-dasharray:none;stroke-opacity:1"
         sodipodi:nodetypes="cssc" />
      <path
         sodipodi:nodetypes="cssc"
         inkscape:connector-curvature="0"
         id="path1241"
         d="m -373.8418,-195.78865 h 38.36459 c 11.90624,0 21.16666,59.53125 30.42708,59.53125 h 82.02083"
         style="fill:none;stroke:#000000;stroke-width:0.71250004;stroke-linecap:butt;stroke-linejoin:miter;stroke-miterlimit:4;stroke-dasharray:none;stroke-opacity:1" />
      <path
         inkscape:connector-curvature="0"
         id="path1243"
         d="m -373.84179,-136.2574 c 0,0 50.27083,0 56.88542,0 6.61458,0 5.29166,-14.55208 11.90625,-14.55208 6.61458,0 25.13541,0 31.74999,0 6.61459,0 6.61459,-15.875 13.22917,-15.875 6.61458,0 37.04167,0 37.04167,0"
         style="fill:none;stroke:#000000;stroke-width:0.71250004;stroke-linecap:butt;stroke-linejoin:miter;stroke-miterlimit:4;stroke-dasharray:none;stroke-opacity:1" />
      <path
         sodipodi:nodetypes="cssssc"
         inkscape:connector-curvature="0"
         id="path1245"
         d="m -223.02929,-150.80948 h -38.36459 c -6.61458,0 -7.9375,-44.97917 -14.55208,-44.97917 h -44.97917 c -6.61459,0 -6.61459,14.55208 -13.22917,14.55208 l -39.68749,1e-5"
         style="fill:none;stroke:#000000;stroke-width:0.71250004;stroke-linecap:butt;stroke-linejoin:miter;stroke-miterlimit:4;stroke-dasharray:none;stroke-opacity:1" />
      <path
         sodipodi:nodetypes="cssssc"
         inkscape:connector-curvature="0"
         id="path1247"
         d="m -373.84179,-150.80948 h 51.59375 c 7.9375,0 17.19792,-30.42708 25.13542,-30.42708 l 19.84374,-1e-5 c 6.61459,0 9.26043,-27.78124 17.19793,-27.78124 h 37.04166"
         style="fill:none;stroke:#000000;stroke-width:0.71250004;stroke-linecap:butt;stroke-linejoin:miter;stroke-miterlimit:4;stroke-dasharray:none;stroke-opacity:1" />
      <path
         sodipodi:nodetypes="cssssssc"
         inkscape:connector-curvature="0"
         id="path1249"
         d="m -373.84179,-166.68448 h 46.30208 c 7.9375,0 6.61457,-14.55209 13.22916,-14.55209 h 5.29167 c 5.29166,0 5.29167,14.55209 11.90626,14.55209 h 22.48957 c 6.61458,-1e-5 5.29167,-14.55209 11.90625,-14.55209 l 39.68751,1e-5"
         style="fill:none;stroke:#000000;stroke-width:0.71250004;stroke-linecap:butt;stroke-linejoin:miter;stroke-miterlimit:4;stroke-dasharray:none;stroke-opacity:1" />
    </g>
  </g>
</svg>
