<?xml version="1.0" encoding="UTF-8" standalone="no"?>
<!-- Created with Inkscape (http://www.inkscape.org/) -->

<svg
   xmlns:dc="http://purl.org/dc/elements/1.1/"
   xmlns:cc="http://creativecommons.org/ns#"
   xmlns:rdf="http://www.w3.org/1999/02/22-rdf-syntax-ns#"
   xmlns:svg="http://www.w3.org/2000/svg"
   xmlns="http://www.w3.org/2000/svg"
   xmlns:sodipodi="http://sodipodi.sourceforge.net/DTD/sodipodi-0.dtd"
   xmlns:inkscape="http://www.inkscape.org/namespaces/inkscape"
   width="395.34244mm"
   height="77.644791mm"
   viewBox="0 0 395.34244 77.644791"
   version="1.1"
   id="svg987"
   sodipodi:docname="j_standard_curves.svg"
   inkscape:version="0.92.5 (2060ec1f9f, 2020-04-08)">
  <defs
     id="defs981">
    <marker
       inkscape:stockid="Arrow2Lstart"
       orient="auto"
       refY="0"
       refX="0"
       id="marker2356"
       style="overflow:visible"
       inkscape:isstock="true">
      <path
         id="path2354"
         style="fill:#000000;fill-opacity:1;fill-rule:evenodd;stroke:#000000;stroke-width:0.625;stroke-linejoin:round;stroke-opacity:1"
         d="M 8.7185878,4.0337352 -2.2072895,0.01601326 8.7185884,-4.0017078 c -1.7454984,2.3720609 -1.7354408,5.6174519 -6e-7,8.035443 z"
         transform="matrix(1.1,0,0,1.1,1.1,0)"
         inkscape:connector-curvature="0" />
    </marker>
    <marker
       inkscape:stockid="Arrow2Mend"
       orient="auto"
       refY="0"
       refX="0"
       id="Arrow2Mend"
       style="overflow:visible"
       inkscape:isstock="true">
      <path
         id="path1953"
         style="fill:#000000;fill-opacity:1;fill-rule:evenodd;stroke:#000000;stroke-width:0.625;stroke-linejoin:round;stroke-opacity:1"
         d="M 8.7185878,4.0337352 -2.2072895,0.01601326 8.7185884,-4.0017078 c -1.7454984,2.3720609 -1.7354408,5.6174519 -6e-7,8.035443 z"
         transform="scale(-0.6)"
         inkscape:connector-curvature="0" />
    </marker>
    <marker
       inkscape:stockid="Arrow2Lstart"
       orient="auto"
       refY="0"
       refX="0"
       id="Arrow2Lstart"
       style="overflow:visible"
       inkscape:isstock="true">
      <path
         id="path1944"
         style="fill:#000000;fill-opacity:1;fill-rule:evenodd;stroke:#000000;stroke-width:0.625;stroke-linejoin:round;stroke-opacity:1"
         d="M 8.7185878,4.0337352 -2.2072895,0.01601326 8.7185884,-4.0017078 c -1.7454984,2.3720609 -1.7354408,5.6174519 -6e-7,8.035443 z"
         transform="matrix(1.1,0,0,1.1,1.1,0)"
         inkscape:connector-curvature="0" />
    </marker>
    <marker
       inkscape:stockid="Arrow2Lend"
       orient="auto"
       refY="0"
       refX="0"
       id="marker1852"
       style="overflow:visible"
       inkscape:isstock="true">
      <path
         id="path1850"
         style="fill:#000000;fill-opacity:1;fill-rule:evenodd;stroke:#000000;stroke-width:0.625;stroke-linejoin:round;stroke-opacity:1"
         d="M 8.7185878,4.0337352 -2.2072895,0.01601326 8.7185884,-4.0017078 c -1.7454984,2.3720609 -1.7354408,5.6174519 -6e-7,8.035443 z"
         transform="matrix(-1.1,0,0,-1.1,-1.1,0)"
         inkscape:connector-curvature="0" />
    </marker>
    <marker
       inkscape:stockid="Arrow1Lend"
       orient="auto"
       refY="0"
       refX="0"
       id="Arrow1Lend"
       style="overflow:visible"
       inkscape:isstock="true">
      <path
         id="path913"
         d="M 0,0 5,-5 -12.5,0 5,5 Z"
         style="fill:#000000;fill-opacity:1;fill-rule:evenodd;stroke:#000000;stroke-width:1.00000003pt;stroke-opacity:1"
         transform="matrix(-0.8,0,0,-0.8,-10,0)"
         inkscape:connector-curvature="0" />
    </marker>
    <marker
       inkscape:stockid="Arrow1Lstart"
       orient="auto"
       refY="0"
       refX="0"
       id="marker2581"
       style="overflow:visible"
       inkscape:isstock="true">
      <path
         id="path2579"
         d="M 0,0 5,-5 -12.5,0 5,5 Z"
         style="fill:#000000;fill-opacity:1;fill-rule:evenodd;stroke:#000000;stroke-width:1.00000003pt;stroke-opacity:1"
         transform="matrix(0.8,0,0,0.8,10,0)"
         inkscape:connector-curvature="0" />
    </marker>
    <marker
       inkscape:stockid="Arrow1Lstart"
       orient="auto"
       refY="0"
       refX="0"
       id="marker2547"
       style="overflow:visible"
       inkscape:isstock="true">
      <path
         id="path2545"
         d="M 0,0 5,-5 -12.5,0 5,5 Z"
         style="fill:#000000;fill-opacity:1;fill-rule:evenodd;stroke:#000000;stroke-width:1.00000003pt;stroke-opacity:1"
         transform="matrix(0.8,0,0,0.8,10,0)"
         inkscape:connector-curvature="0" />
    </marker>
    <marker
       inkscape:stockid="Arrow1Lstart"
       orient="auto"
       refY="0"
       refX="0"
       id="marker2501"
       style="overflow:visible"
       inkscape:isstock="true">
      <path
         id="path2499"
         d="M 0,0 5,-5 -12.5,0 5,5 Z"
         style="fill:#000000;fill-opacity:1;fill-rule:evenodd;stroke:#000000;stroke-width:1.00000003pt;stroke-opacity:1"
         transform="matrix(0.8,0,0,0.8,10,0)"
         inkscape:connector-curvature="0" />
    </marker>
    <marker
       inkscape:stockid="Arrow1Lstart"
       orient="auto"
       refY="0"
       refX="0"
       id="marker2467"
       style="overflow:visible"
       inkscape:isstock="true">
      <path
         id="path2465"
         d="M 0,0 5,-5 -12.5,0 5,5 Z"
         style="fill:#000000;fill-opacity:1;fill-rule:evenodd;stroke:#000000;stroke-width:1.00000003pt;stroke-opacity:1"
         transform="matrix(0.8,0,0,0.8,10,0)"
         inkscape:connector-curvature="0" />
    </marker>
    <marker
       inkscape:stockid="Arrow2Lstart"
       orient="auto"
       refY="0"
       refX="0"
       id="marker2356-7"
       style="overflow:visible"
       inkscape:isstock="true">
      <path
         inkscape:connector-curvature="0"
         id="path2354-0"
         style="fill:#000000;fill-opacity:1;fill-rule:evenodd;stroke:#000000;stroke-width:0.625;stroke-linejoin:round;stroke-opacity:1"
         d="M 8.7185878,4.0337352 -2.2072895,0.01601326 8.7185884,-4.0017078 c -1.7454984,2.3720609 -1.7354408,5.6174519 -6e-7,8.035443 z"
         transform="matrix(1.1,0,0,1.1,1.1,0)" />
    </marker>
  </defs>
  <sodipodi:namedview
     id="base"
     pagecolor="#ffffff"
     bordercolor="#666666"
     borderopacity="1.0"
     inkscape:pageopacity="0.0"
     inkscape:pageshadow="2"
     inkscape:zoom="0.70710678"
     inkscape:cx="818.74442"
     inkscape:cy="186.99845"
     inkscape:document-units="mm"
     inkscape:current-layer="layer1"
     showgrid="false"
     inkscape:snap-bbox="true"
     inkscape:bbox-nodes="true"
     inkscape:object-paths="false"
     inkscape:snap-intersection-paths="true"
     inkscape:snap-smooth-nodes="true"
     fit-margin-top="0"
     fit-margin-left="0"
     fit-margin-right="0"
     fit-margin-bottom="0"
     inkscape:window-width="1920"
     inkscape:window-height="1057"
     inkscape:window-x="0"
     inkscape:window-y="0"
     inkscape:window-maximized="1"
     inkscape:snap-global="false"
     inkscape:snap-object-midpoints="true"
     inkscape:snap-bbox-midpoints="true"
     inkscape:object-nodes="true"
     inkscape:snap-nodes="true"
     inkscape:snap-page="true" />
  <metadata
     id="metadata984">
    <rdf:RDF>
      <cc:Work
         rdf:about="">
        <dc:format>image/svg+xml</dc:format>
        <dc:type
           rdf:resource="http://purl.org/dc/dcmitype/StillImage" />
        <dc:title />
      </cc:Work>
    </rdf:RDF>
  </metadata>
  <g
     inkscape:label="Layer 1"
     inkscape:groupmode="layer"
     id="layer1"
     transform="translate(-4.5123712,-28.191547)">
    <g
       id="g1070"
       transform="matrix(1.0141808,0,0,1.0141808,-0.19980891,-0.54479338)">
      <path
         sodipodi:nodetypes="csssc"
         inkscape:connector-curvature="0"
         id="path1203"
         d="M 36.265734,53.986015 C 8.3813384,55.198379 10.851547,93.379984 24.1081,93.392597 36.01477,93.40395 50.684942,70.092667 35.956978,71.224586 21.702229,72.320135 36.906856,93.849437 46.591232,93.238072 60.312484,92.371853 58.391386,53.682923 36.265734,53.986015 Z"
         style="fill:none;stroke:#000000;stroke-width:0.89999998;stroke-linecap:butt;stroke-linejoin:miter;stroke-miterlimit:4;stroke-dasharray:none;stroke-opacity:1" />
      <path
         inkscape:connector-curvature="0"
         id="path4742-6-27-0"
         d="m 32.284255,50.395805 5.672314,3.57963 -5.751742,3.450558"
         style="fill:none;stroke:#000000;stroke-width:0.89999998;stroke-linecap:round;stroke-linejoin:round;stroke-miterlimit:4;stroke-dasharray:none;stroke-opacity:1" />
      <flowRoot
         transform="matrix(0.24591814,0,0,0.24591814,-24.423551,42.386981)"
         style="font-style:normal;font-weight:normal;font-size:40px;line-height:1.25;font-family:sans-serif;text-align:end;letter-spacing:0px;word-spacing:0px;text-anchor:end;fill:#000000;fill-opacity:1;stroke:none"
         id="flowRoot1374"
         xml:space="preserve"><flowRegion
           id="flowRegion1376"><rect
             y="-25.080917"
             x="53.740116"
             height="90.509666"
             width="248.90158"
             id="rect1378" /></flowRegion><flowPara
           id="flowPara1534"
           style="font-style:normal;font-variant:normal;font-weight:normal;font-stretch:normal;font-family:Ubuntu;-inkscape-font-specification:Ubuntu">J⁺ = -2</flowPara></flowRoot>    </g>
    <g
       id="g1078"
       transform="matrix(1.0141808,0,0,1.0141808,-0.28270335,-0.54479338)">
      <path
         inkscape:connector-curvature="0"
         id="path1201"
         d="M 88.645603,54.001907 C 57.38833,55.290866 59.321767,95.248616 87.678884,93.315176 116.03598,91.381736 116.03598,53.357427 88.645603,54.001907 Z"
         style="fill:none;stroke:#000000;stroke-width:0.89999998;stroke-linecap:butt;stroke-linejoin:miter;stroke-miterlimit:4;stroke-dasharray:none;stroke-opacity:1" />
      <path
         inkscape:connector-curvature="0"
         id="path4742-6-27"
         d="m 86.017368,50.395804 5.672314,3.57963 -5.751741,3.450557"
         style="fill:none;stroke:#000000;stroke-width:0.89999998;stroke-linecap:round;stroke-linejoin:round;stroke-miterlimit:4;stroke-dasharray:none;stroke-opacity:1" />
      <flowRoot
         transform="matrix(0.24591814,0,0,0.24591814,26.52121,42.386981)"
         style="font-style:normal;font-weight:normal;font-size:40px;line-height:1.25;font-family:sans-serif;text-align:end;letter-spacing:0px;word-spacing:0px;text-anchor:end;fill:#000000;fill-opacity:1;stroke:none"
         id="flowRoot1374-1"
         xml:space="preserve"><flowRegion
           id="flowRegion1376-5"><rect
             y="-25.080917"
             x="53.740116"
             height="90.509666"
             width="248.90158"
             id="rect1378-4" /></flowRegion><flowPara
           style="font-style:normal;font-variant:normal;font-weight:normal;font-stretch:normal;font-family:Ubuntu;-inkscape-font-specification:Ubuntu"
           id="flowPara1380-9">J⁺ = 0</flowPara></flowRoot>    </g>
    <g
       id="g1087"
       transform="matrix(1.0141808,0,0,1.0141808,-0.32004209,-0.54479338)">
      <path
         inkscape:connector-curvature="0"
         id="path1199"
         d="m 164.34354,53.941478 c -17.77009,-0.407187 -12.74083,39.496971 -31.34914,39.496971 -18.6083,0 -16.59658,-35.832303 -1.84405,-35.832303 14.75252,0 16.09366,34.61075 33.69611,34.61075 17.60244,0 18.44066,-37.868233 -0.50292,-38.275418 z"
         style="fill:none;stroke:#000000;stroke-width:0.89999998;stroke-linecap:butt;stroke-linejoin:miter;stroke-miterlimit:4;stroke-dasharray:none;stroke-opacity:1" />
      <path
         inkscape:connector-curvature="0"
         id="path4742-6-27-9"
         d="m 159.34626,50.395805 5.67231,3.57963 -5.75173,3.450558"
         style="fill:none;stroke:#000000;stroke-width:0.89999998;stroke-linecap:round;stroke-linejoin:round;stroke-miterlimit:4;stroke-dasharray:none;stroke-opacity:1" />
      <path
         inkscape:connector-curvature="0"
         id="path4742-6-27-3"
         d="m 135.10081,61.360569 -5.67231,-3.579631 5.75174,-3.450558"
         style="fill:none;stroke:#000000;stroke-width:0.89999998;stroke-linecap:round;stroke-linejoin:round;stroke-miterlimit:4;stroke-dasharray:none;stroke-opacity:1" />
      <flowRoot
         transform="matrix(0.24591814,0,0,0.24591814,88.024109,42.386981)"
         style="font-style:normal;font-weight:normal;font-size:40px;line-height:1.25;font-family:sans-serif;text-align:end;letter-spacing:0px;word-spacing:0px;text-anchor:end;fill:#000000;fill-opacity:1;stroke:none"
         id="flowRoot1374-2"
         xml:space="preserve"><flowRegion
           id="flowRegion1376-57"><rect
             y="-25.080917"
             x="53.740116"
             height="90.509666"
             width="248.90158"
             id="rect1378-49" /></flowRegion><flowPara
           style="font-style:normal;font-variant:normal;font-weight:normal;font-stretch:normal;font-family:Ubuntu;-inkscape-font-specification:Ubuntu"
           id="flowPara1380-94">J⁺ = 0</flowPara></flowRoot>    </g>
    <g
       id="g1095"
       transform="matrix(1.0141808,0,0,1.0141808,1.4196823,-0.54479338)">
      <path
         inkscape:connector-curvature="0"
         id="path1224"
         d="m 205.18266,54.061276 c 22.58067,-1.297738 25.9548,25.695246 16.35152,33.741239 -9.60327,8.045972 -23.35932,6.488691 -30.10756,0.778635 -6.74826,-5.710051 -8.04599,-35.817612 13.75604,-34.519874 z"
         style="fill:none;stroke:#000000;stroke-width:0.89999998;stroke-linecap:butt;stroke-linejoin:miter;stroke-miterlimit:4;stroke-dasharray:none;stroke-opacity:1" />
      <path
         inkscape:connector-curvature="0"
         id="path4742-6-27-6"
         d="m 208.6532,57.665789 -5.67232,-3.579631 5.75175,-3.450558"
         style="fill:none;stroke:#000000;stroke-width:0.89999998;stroke-linecap:round;stroke-linejoin:round;stroke-miterlimit:4;stroke-dasharray:none;stroke-opacity:1" />
      <flowRoot
         transform="matrix(0.24591814,0,0,0.24591814,145.9118,42.386981)"
         style="font-style:normal;font-weight:normal;font-size:40px;line-height:1.25;font-family:sans-serif;text-align:end;letter-spacing:0px;word-spacing:0px;text-anchor:end;fill:#000000;fill-opacity:1;stroke:none"
         id="flowRoot1374-5"
         xml:space="preserve"><flowRegion
           id="flowRegion1376-9"><rect
             y="-25.080917"
             x="53.740116"
             height="90.509666"
             width="248.90158"
             id="rect1378-3" /></flowRegion><flowPara
           style="font-style:normal;font-variant:normal;font-weight:normal;font-stretch:normal;font-family:Ubuntu;-inkscape-font-specification:Ubuntu"
           id="flowPara1380-5">J⁺ = 0</flowPara></flowRoot>    </g>
    <g
       id="g1103"
       transform="matrix(1.0141808,0,0,1.0141808,1.3016693,-0.54479338)">
      <path
         sodipodi:nodetypes="csssc"
         inkscape:connector-curvature="0"
         id="path1205"
         d="m 260.96637,51.710028 c 20.02952,0.522807 12.75101,39.183814 2.40687,39.183814 -22.13071,0 -15.71891,-21.549494 -5.84522,-21.209022 9.87375,0.340474 7.59957,21.437415 -10.44546,21.096948 -18.04506,-0.340467 -10.29948,-38.307126 13.88381,-39.07174 z"
         style="fill:none;stroke:#000000;stroke-width:0.89999998;stroke-linecap:butt;stroke-linejoin:miter;stroke-miterlimit:4;stroke-dasharray:none;stroke-opacity:1" />
      <path
         inkscape:connector-curvature="0"
         id="path4742-6-27-6-0"
         d="m 262.18227,54.495133 -6.4098,-1.975673 4.65222,-4.831733"
         style="fill:none;stroke:#000000;stroke-width:0.89999998;stroke-linecap:round;stroke-linejoin:round;stroke-miterlimit:4;stroke-dasharray:none;stroke-opacity:1" />
      <flowRoot
         transform="matrix(0.24591814,0,0,0.24591814,196.07197,42.386981)"
         style="font-style:normal;font-weight:normal;font-size:40px;line-height:1.25;font-family:sans-serif;text-align:end;letter-spacing:0px;word-spacing:0px;text-anchor:end;fill:#000000;fill-opacity:1;stroke:none"
         id="flowRoot1374-7"
         xml:space="preserve"><flowRegion
           id="flowRegion1376-0"><rect
             y="-25.080917"
             x="53.740116"
             height="90.509666"
             width="248.90158"
             id="rect1378-8" /></flowRegion><flowPara
           style="font-style:normal;font-variant:normal;font-weight:normal;font-stretch:normal;font-family:Ubuntu;-inkscape-font-specification:Ubuntu"
           id="flowPara1380-1">J⁺ = -2</flowPara></flowRoot>    </g>
    <g
       id="g1111"
       transform="matrix(1.0141808,0,0,1.0141808,-2.227192,-0.54479338)">
      <path
         sodipodi:nodetypes="csssssc"
         inkscape:connector-curvature="0"
         id="path1207"
         d="m 313.19466,51.734587 c -35.52882,0.318843 -26.22548,38.659711 -18.2958,39.274461 9.73824,0.754959 11.0471,-17.409644 5.61235,-17.412578 -7.11329,-0.0038 -5.35691,17.074123 5.82172,17.169698 8.00395,0.06843 14.51957,-18.967904 6.06683,-18.345295 -6.08651,0.448318 -3.06444,18.725419 6.40118,18.588175 9.24971,-0.134113 16.01829,-39.649915 -5.60628,-39.274461 z"
         style="fill:none;stroke:#000000;stroke-width:0.89999998;stroke-linecap:butt;stroke-linejoin:miter;stroke-miterlimit:4;stroke-dasharray:none;stroke-opacity:1" />
      <path
         inkscape:connector-curvature="0"
         id="path4742-6-27-6-6"
         d="m 318.06153,55.323773 -5.67232,-3.579631 5.75175,-3.450558"
         style="fill:none;stroke:#000000;stroke-width:0.89999998;stroke-linecap:round;stroke-linejoin:round;stroke-miterlimit:4;stroke-dasharray:none;stroke-opacity:1" />
      <flowRoot
         transform="matrix(0.24591814,0,0,0.24591814,248.089,42.386981)"
         style="font-style:normal;font-weight:normal;font-size:40px;line-height:1.25;font-family:sans-serif;text-align:end;letter-spacing:0px;word-spacing:0px;text-anchor:end;fill:#000000;fill-opacity:1;stroke:none"
         id="flowRoot1374-9"
         xml:space="preserve"><flowRegion
           id="flowRegion1376-97"><rect
             y="-25.080917"
             x="53.740116"
             height="90.509666"
             width="248.90158"
             id="rect1378-82" /></flowRegion><flowPara
           style="font-style:normal;font-variant:normal;font-weight:normal;font-stretch:normal;font-family:Ubuntu;-inkscape-font-specification:Ubuntu"
           id="flowPara1380-53">J⁺ = -4</flowPara></flowRoot>    </g>
    <g
       id="g1119"
       transform="matrix(1.0141808,0,0,1.0141808,-0.19978791,-0.54479338)">
      <path
         sodipodi:nodetypes="csssssssc"
         inkscape:connector-curvature="0"
         id="path1207-7"
         d="m 362.49251,51.734587 c -35.50631,-1.304097 -27.62865,38.753254 -19.69897,39.368005 9.73824,0.75496 10.39229,-17.222555 4.95754,-17.225489 -7.11329,-0.0038 -5.07627,17.167667 6.10236,17.263243 8.00395,0.06843 14.61312,-17.097018 6.16037,-16.474409 -6.08651,0.448318 -3.51773,16.976749 5.93347,16.436655 4.82695,-0.275838 12.90052,-17.259125 5.54485,-17.287401 -6.1072,-0.02348 -2.31051,17.839334 5.03123,17.022624 7.8131,-0.869145 13.78865,-38.315019 -14.03085,-39.103228 z"
         style="fill:none;stroke:#000000;stroke-width:0.89999998;stroke-linecap:butt;stroke-linejoin:miter;stroke-miterlimit:4;stroke-dasharray:none;stroke-opacity:1" />
      <path
         inkscape:connector-curvature="0"
         id="path4742-6-27-6-6-5"
         d="m 360.90483,55.604405 -5.67233,-3.579631 5.75176,-3.450558"
         style="fill:none;stroke:#000000;stroke-width:0.89999998;stroke-linecap:round;stroke-linejoin:round;stroke-miterlimit:4;stroke-dasharray:none;stroke-opacity:1" />
      <flowRoot
         transform="matrix(0.24591814,0,0,0.24591814,300.10172,42.386981)"
         style="font-style:normal;font-weight:normal;font-size:40px;line-height:1.25;font-family:sans-serif;text-align:end;letter-spacing:0px;word-spacing:0px;text-anchor:end;fill:#000000;fill-opacity:1;stroke:none"
         id="flowRoot1374-9-2"
         xml:space="preserve"><flowRegion
           id="flowRegion1376-97-9"><rect
             y="-25.080917"
             x="53.740116"
             height="90.509666"
             width="248.90158"
             id="rect1378-82-1" /></flowRegion><flowPara
           style="font-style:normal;font-variant:normal;font-weight:normal;font-stretch:normal;font-family:Ubuntu;-inkscape-font-specification:Ubuntu"
           id="flowPara1380-53-2">J⁺ = -6</flowPara></flowRoot>    </g>
  </g>
</svg>
